﻿Eigentümer: [)ß Netz AG RB: Süd Haltung: [Jß KT GmbH RB: Süd		Idb) netze	
{2057013967}			
Tkkz			
		Datum N	ame
Besfan	nl sn	03.2000 S	challer
	uspLdn 1 Gepr	0^.2000 E	bing
Format:	297x1350 (jber	e.	
MaBstab:	Ursp	r.	
Kabelzubehörplan Tk
Streckenfernmeldekabel Bamberg - Hochstadt/Marktzeuln F 4455/74"(42/32)
Strecke 5100 Bamberg - Hof
Projekt beschreibung;
Blatt
Bl.
Ers t.: Zubehör _F4455_Ü1.dwg