﻿							
							
							
							
							
							
Nr.	§ • Änderung	Gezeichnet	Datum	Geprüft	Datum	• • Ubere. v. Ort	Datum
Eigentümer: DB Netz AG
RB: Süd
Verwaltung: DB KT GmbH
RB: Süd
Kabelübersichtsplan RB
Bereich Rosenheim
2057011174}
Tkuk						
			Datum	Name		
Bestand		Gez.	20.09.2012	Grundner	Projektbeschreibung:	Blatt
		Gepr.	08.11.2013	Kreußer		01
Format:	297x590	• t Ubere.	08.04.2013	Kosikowski		01 Bl.
Maßstab:	ohne	Urspr.			Ers. f.:	