﻿• •
Änderung
Datum
Gepr.
	
	
	
	
• 1	1 •
Datum	1 • • Ubere.
Datum
Eigentümer:


ff
— 7
Maßstab: ohne
Format: 297x420
Niederlassung Süd
Planungszustand: Bestand
Bearbeitet durch:
UBM



®s=-w
ccr-	yÄä
-ccc-
=*==>
GRE
Benennung:
Gauff Rail Engineering GmbH
Strecke 5510
Schönhauser Allee 10-11,10119 Berlin
F4153 (K30) 43" (30/13)
Tel.: 030 - 24 749-0
Gez.
Bearb.
ESTW Rosenheim Korektur 09.10.07 Hermann Gepr.
Datum
28.04.03
28.04.03
28.04.03
Name
Stichkabeleinführung F8" (4/4) Fs-Säule(19BB)
Woge-Voges/GRE Dateiname:
Blatt
Woge-Voges/GRE
Woge-Voges/GRE
Änderung
Datum
NamekJrspr.
Ers.f.:Spleiss_F4l53
02.dwg |Ers.d.: