﻿		£te fijrjn	Nrnie	Nr
				
		■ 1	J		
				.
i				; 1

■v»!. -
5sa
,-U-ll--------J --

Dsf 12» 1811a 001 St. HdiaeUsdonn

li
Aktualisierung
ft 3- nc
r
...
ü
Bi® [iffitm
Di Telematik GmiH
ieglffln Nord ÄmsiBGkstrafiJe 61 2Q097
Hamburg
Riesen
Name
Bearb.
OS.SB
11.5.88
Name
Ml
Gebhardt
Maltet ab: ohne
Planzustand: Bestand
t asten b e 1 i g ungsplan MF 04
St. Michaelisdonn
D o kument-l D; 100000 58782
li elematih - int
i

r. 0140047023
Ers.f.: Dsf 1210
«t
I
u
4-
15