﻿					
					
					
					
II ♦ 1	1 i	•		• 1	1 •
litt 1 Änderung	Gez.	Datum	Gepr.	Datum	1 $ $ Ubere.
Änderung
Datum
Eigentümer;
DB Net

Maßstab: ohne
Niederlassung Süd
Format: 297x594
Planungszustand: Bestandsplan freigegeben
Bearbeitet durch:
Benennung:
P
e i H3 p
n
O

Telemat
LWL-Kabel S190002 12'
Rosenheim - Raubling
Region Süd
Endeinführung
Datum
Name
Gez.
17.01.07 Gauert
Dokument-ID:
Bearb. 17.01.07 Horwitz
Blatt
01
Datum
\ Gepr. Il8.01.07
Blumenstock
Name|Urspr
Ers.f .:Spleiß___5190002____Q2.dwg |Ers.d.:
Bl.01