﻿Eigentümer:
DB
Niederlassung Süd
	
	
DB Telemati
Region Süd
Gez.
Bearb.
Gepr.
Datum
17.01.07
17.01.07
18.01.07
Name
Gauert
Horwitz
Blumenstock
Maßstab: ohne
Format: 297x594
Planungszustand: Bestandsplan freigegeben
Benennung:
P
i f~3 p
n
O
LWL-Kabel $230001 12'
Bad Endorf
Prien
Endeinführung
Dokument-ID:
Blatt
01
Bl.01
Änderung
Urspr.
Ers.f,:Spleiß__S230001___01.dwg lErs.d.: