﻿DIS-Beschreibung: Dsf_1040_172_03_01 Bf Flensburg Weiche Stw. "Ff" Fdl 1+Fdl. 2
			Die Bahn i PBI DB Telematik GmbH D.KTR-N-P Amsinckstrafle 61 20097 Hamburg		
					
					
					
					
				Datum	Name
			Gez.	15.02.2006	H. Günther
			Bearb.	15.02.2006	H. Günther
			Gepr.	15.02.2006	H. Poppen
Änderung	Datum	Name	Urspr.		
Maßstab: ohne Maßstab
Format: A 32
Planzustand: Bestand
BE
Tastenbelegungsplan
DIKOS
FST Tastenbelegung Stw. "Ff" Fdl. 1+Fdl. 2 Bf Flensburg Weiche Stw. "Ff"
Dokument-ID: 10000053189
00
DB telematik - intern
Blatt
1
1
Bl.
9
10
Ers.f.: Dsb 1040.172.02.01 v. 04./95
Ü
12
7
8