﻿Die Bahn
DBTelematik
Maßstab: ohne_______________
Planungszustand: Bestand
freigegeben
| Format:
				DB-Te!ematih GmbH KFF- SW Lammstraße 19 76133 Karlsruhe			Benennung:	S [zd L ^ i ^ ^ HD L	^ i—!
								F 4019 42” [22/20) Ludwigshafen - Mannheim EndeinfLihrung Ludwigshafen	
									
									
					Datum	Name			
				Gez.		Lienhard	Dateiname:	BF F4019 spe.dwg	Blatt
				Bearb,	12.02	Uenhard			
1	Bestand	04.04	Lie	Gepr.	12.02	Petry			BL
Zust	Anderuna	Datum	'Jame				Ers.f.:	lErs.d.:	
i	-	i	^	n