﻿Die Bahn
PBTelematik
Maßstab: ohne
Format; A3
Planungszustand: Bestandsplan
freigegeben
			
			
			
			
			
			
2	Ubern. Bestand	03.12.06	FA/SF
1	Neuzeichnen	13.07.06	FA/ZR
Zust.	Änderung	Datum fiam	
DB-Telematik GmbH D.KTR-SW-P
Benennung:
Lammstrafle 19 76133 Karlsruhe
Datum
Name
Gez. Bearb. Gepr.
13.07.06
07.06
07.06
Zoller
Fortner
Riedle
Dateiname:
Ers.f.:
T astenbelegungsplan Bf Speyer
Dsb 19 092 2 1
Blatt
Bl.
8