﻿	
	
	
	
	
	
	
	
Änderung	Datum
Maßstab: ohne
Format: 297x594
Planzustand: Bestand
Eigentümer DB Netz AG
RB: Süd
Verwaltung: DB Systel GmbH
RB: Süd/München
Datum Name |		
Gez.	08/04	Krauße/Fa. IVVl
Bearb.	08/04	Enqmann/Fa. IVVl
Gepr.	08/04	Herold/Fa. IVVl
rspr.
Spleißplan
Neubaustrecke Nürnberg - Ingolstadt Strecke 5900
Verbindungsmuffe km 84,995 (M36/37), F7402 Tunnel Audi Portal Nord
Dokument-ID:		Blatt
TKKS	2057002447	01
		01 Bl.
Ers.f.: Spleiss	F7402_	04.dwg	