﻿                                                                                                                                             
                                                                                                                                             
                                                                                                                                             
Teilung geändert: Einf. 5 - 9 zu Tkkz_2057011629; Einf. 2a, 3a, 3b neu Grundner   19.03.2013   Klitin    22.03.2013                          
Neuer Sonderstich Sch-H-71 4a km 71,671                                Schäfer    24.09.2010   Meidert   04.10.2010 Schindelbeck  09.07.2010 
ESTW Pleinting eingetragen                                               Spirk    25.05.10   Scholtyssek 25.05.10         Schmidt 22.02.10   
• t                                                                    Gezeichnet Datum        Geprüft   Datum      • •           Datum      
Änderung                                                                                                            Ubere. v. Ort            
Maßstab: ohne
Format; 297x1730
Planungszustand: Bestandsplan
                                                                                                     freigegeben
Einführ. 10 bis 18 auf neuem Plan Zubehör F4461 02.dv
Ergänzung GSM
Einf. bei Nr. 3 entfallen
Plan
ZBF Sich qeänd.
TEV VIII Ap14 auf Klemme 3 statt 4 qeänd
                 
        __       
02.2005 Güntherl 
03.2003 MLa      
10.2002 DTU      
05.2001 SIH/J.M. 
10.1986          
02.1979          
Änderung
Eigentümer: 0ß Netz AG
RB: Süd
DB KT GmbH
RB: Süd
Datum
Gez.
Bearb.
Gepr.
Datum
Name
03.2000
06.2000
03.2000
Dein
Dein
NamejUrspr. Dlk5830.09.1 v. 09.1978
Benennung: Zubehörplan Tk Cu                        
           F4461/108" (44/64)                       
           Strecke 5830                             
           Passau Hbf - Obertraubling, W 5 und W 6  
Dateiname:                     Blatt                
           Tkkz 2057009497.dwg 1                    
                               1 Bl.                
Ers.f.: Zubehör_F4461.dwg |Ers.d.:                  
