﻿♦ •
Änderungen nach Vorgaben vom Servicetechniker
• •                     
Änderung                
!0570047      >61       
                        
                        
                        
                        
                        
                        
                        
Dokumentation 12.06.08| 
w w                     
Änderung Datum          
   Telematik
DB Telematik
Region Süd
Landsberger Str. 314
80687 München
Datum
Gez.
Bearb.
Gepr.
Name
09/2001
10/2002
Name|Urspr. pa
Klu
Schäfer
Gezeichnet
10.05.2010
Datum
NAD
Geprüft
12.05.2010
Datum
Schüppler
♦ •
Ubere. v. Ort
13.04.2010
Datum
Maßstab: ohne
Format: A3.2
Planungszustand: Bestandsplan
freigegeben
Benennung: gesamter Erdungsplan
Strecke 550S München Hbf-Solln
Standort Großhesselohe
Dateiname:
Tkee
2057004561
Blatt
MR_17969_301.dwg
Ers.f.: BF
MR
17969
001.d|ETs.c[:
Bl.