﻿                                                                                                             
                                                                                                             
                                                                                                             
                                                                                                             
                                                                                                             
                                                                                                             
Nr. • »                                                  Gez.        Datum   Gepr.   Datum   • •     Datum   
    Änderung                                                                                 Ubere.          
Verwaltung:                                             Gestell-/Verteiler-/Schrankbelegungsplan TK          
DB Dienstleistungei                                     Systemschrank Gleichrichter                          
Systel GmbH                      Eigentümer:            Lademeister 7                                        
Regionalber. Süd/Büro München    Niederlassung Süd      Ubf München-Riem                                     
         2  :057000135                                  Strecke 5600, München Ost Pbf - Simbach              
TKAG                                                    km 7,512                                             
                                  Datum    Name                                                              
Bestand                   Gez.    15.04.08 OPB, Schmidt Projektbeschreibung:                    Blatt 01     
                          Gepr.   15.04.08 OPB, Wahl                                                         
Format:     297x420       • •     03.06.08 Kosikowski                                           01 Bl.       
                          Ubere.                                                                             
Maßstab:    ohne          Urspr.                        Ers. f.:                                             
