﻿DIS-Beschreibung: BF_GLBd_5304._MBOB_01_01.dwg                 
                                  Die    Bah        »I         
Dokumentation 08/2005   K o h r t DB Telematik GmbH            
                                  D.KTR-S-P                    
                                  Landsberger Str. 314         
                                  80687 München                
                                         Datum      |Name      
                                  Gez.   08/2004    h Dorn     
                                  Bearb. 12/2004    Kohrt      
                                  Gepr.  12/2004    Eberhardt  
V W                                                            
Änderung      Datum     Name Urspr.                            
MaBstab: ohne
Format: A3
 Planzustand: Bestand freigegeben
 Ubersichtsplan Bedienplatz ART Anbindung "MBOB" (01) Bobingen Strecke 5304
 Augsburg Hbf/W652 - Buchloe
Dokument-ID: Tkap_2057007654.dwg Blatt  
                                 01     
                                 01 Bl. 
Ers.f.; BF_GLBd_5304_MBOB_01_Ol.dwg     
