﻿ DIS-Beschreibung: BF_GLFM_5552   
                                  
 Dokumentation 08/2005    Gauert  
                                  
                                  
                                  
                                  
                                  
                                  
                                  
 |Anderung |   iDatum |   |Name   
S I                               
DB Telematik GmbH
D.KTR-S-P
Landsberger Straße 314 80687 München
        IDatum l Name      
Gez. I  02/2005  Kaulfuß   
Bearbj02/2005    Kohrt     
Gepr. | I02/2005 Eberhardt 
UrsDr.
6
Maßstab: 1:50
                    Format: AB
Planzustand: Bestand freigegeben
Grundrißplan ART-Anbindung "MAY" (01) Aying Strecke 5552
München Giesing, W403 - Kreuzstraße, Gleisl, S-Bahn