﻿
bearbeitet
p
mm
Name
MH
M
Bundesbahndirekton Hamburg
7.66
Hmb- Altona den 2 4 Ju li 1986.
m
MHMMMMM


CtjOCf
Bf Buchhotz
Stw „Bhf "
oberer Teil
Tastenbelegung Universalfernsprecher' Neuthann
StrNn 2200
Dsf
i
i.1 Mjj■ i»mn i. ui vu u
’rsafz für Ds9 32.
                                                                                                                                                                                                                                                                                                                                                                                                                                                  i

*   J„*
*******
, i
'WlMHUHl

■ - - ' Ift—-iA i" ■-. ■>■.T- -m.          ^--- r-
