﻿                                                                                                               
                                                                                                               
                                                                                                               
                                                                                                               
                                                                                                               
01  M km 0,114 und M km 0,119 im Kabel FB114   Schulz   22.02.2013 Meidert 22.02.2013     Fleps     30.05.2012 
Nr. • •                                      Gezeichnet Datum      Geprüft Datum      • •           Datum      
    Änderung                                                                          Ubere. v. Ort            
Tklk 12057014502}
bf
Kabelstrecke
Planungszustand
Eigentümer: 0ß Netz AG
RB: Süd
Verwaltung: Qß KT GmbH
RB: Süd
eNJrsp
Maßstab: 1:1000
Format: 297X1920
Planungszustand: Bestandsplan freigegeben
Benennung:   Kabellageplan
5364
Kaufering-Landsberg(Lech)
!
^schnitt km:
Datum Name   
Gez.         
Bearb.       
Gepr.        
Bf Landsberg/Lech
Dokumenf-ID: Tklk_2057014502.dwg
Blaff
Ers.f.: Dlk 61465 Mai 1951
Bl.
Ers.d.: 1061465