﻿im
/irklichkeit
                                                                 
                                                                 
5R)2Y6X4E9/125 ESTW-UZ Südwest - RSTW Herrsching       BP        
10/24)               Weßling - Herrsching              BP        
»eltyp                   Kabelstrecke            Planungszustand 
Tklk
DB Intern
• •
Übernahme Kabellage Cu# Neubau Kabel F7128 (Ivl vom 15.04.2010)
{2057016131}
01
Index
a)
• t
Änderung
Grundner
07.01.2014
                                                                                                                                                        Bearb. / Datum
N A D
07.01.2014
Gepr. / Datum
Horwitz
10.12.2008
                                                                                                                                                 Abnah. / Datum
N A D
17.01.2014
i •
                                                                                                                                                     Ubnah. / Datum
DB Netz AG RB: Süd/München
297x970
Ersatz für: 1062084.tif
AutoCAD-Zeichnung
Ersatz durch:
Plannummer
1:1000
Erstellt:
Geprüft:
Freigegeben
23.12.1970
Datum
de
BD München
Name
Lageplan Tk
Strecke 5541: München Westkreuz, W378 - Herrsching km 23,920 - km 24,289
DB KT GmbH RB: Süd/München