﻿                                                                 
                                                                 
                                                                 
                                                                 
                                                                 
1 Planaktualisierung Zoller 15.04.09 NAD 15.04.09 Preuß 26.03.09 
  • •                Gez. Datum      Gepr. Datum  • •            
  Änderung                                        Ubere. Datum   
Eigenhümer DB Netz AG
                                                             RB: Süd
VerwalfungQB Systel GmbH
                                                                                                               RB: Süd/München
               2057001197                     
TKAG                                          
                        Datum    Name         
Bestand          Gez.   15.03.07 OPB, Schmidt 
                 Gepr.  15.03.07 OPB, Wahl    
                 • •                          
Format:  297x594 Ubere.                       
Maßstab: ohne    Urspr.                       
Ges teil-/Verteiler-/Schrankbelegungsplan TK
                                           Kellergeschoß Kabelabschlussgestell KAG-Raum, Relaisgebäude Bf Reichertshofen
Strecke: 5501 München - Treuchtlingen
                                           km 72,344
Projektbeschreibung:
                                                                                                                                                                      Blatt 01
Ers. f.: