﻿ DIS-Beschreibung: BF_GLBd_5851_   
                                   
                                   
                                   
                                   
                                   
                                   
                                   
                                   
 Erstellung Doku 07/2005    Dorn   
 |Anderung |     iDatum |   |Name  
S 1                                
NMAH___01__Ol.dwg
   DB Telematik GmbH
D.KTR-S-PB Südwestpark 60 90449 Nürnberg
        IDatum l Name     
Gez. I  06/2004  Richter  
Bearbj06/2004    Verholen 
Gepr. | I06/2004 Schulz   
UrsDr.
6
Maßstab: ohne
Format: AB
 Planzustand: Bestand freigegeben
 Ubersichtsplan Bedienplatz ART-Anbindung Stw "NMAH"
 Strecke 5851
 Regensburg Hbf, Stw6, W455 - Ingolstadt Hbf, W21B Matting Ausweiche "NMAH"