﻿                                                                                                                                                                                                                                                                                                                                                                                                                                                                  1 1 - W ■ ■ ■■ »■■ ■ ■ ■ ■ 1 ■ 1 -
Tkee 63 1500 6345 HOA 570 001
Tkee
DB Infern
01
Dokumentationsmanqel NAD-09-127
{0357003819}

01
Index
Erstellung
t +
Änderung
Lange
06/10
ßearb, /
Gepr. /
Walzuck
06/10
Abnah. /
Hirn.
08.06.10
Ubnah. /

WITII
DB Netz AG Regionalbereich: Ost
297x420
Ersatz für:
AutoCAD-Zeichnung
Ersatz durch:
6345 763 HOA 570 Guben Süd
Plannummer
 Erstellt:                                               
 Geprüft:                 Erdungsplan Tk                 
 Freigegeben:             HOA 570 Guben Süd (Kerkwitz)   
              Datum  Name Schalthaus                     
               de         6345 Eilenburg - Guben         
                                              1-         
5                  6 I 7               i. ■ 8            
