﻿                                                                
                                                                
                                                                
                                                                
                                                                
                                                                
Nr. • •      Gezeichnet Datum Geprüft Datum • •           Datum 
    Änderung                                Ubere. v. Ort       
Tksm                                          
                           Datum      Name    
Bestand             Gez.   28.08.2009 Dorn    
                    Gepr.  28.08.2009 Wagner  
                    • •                       
Format: 420x1189    Ubere. 27.09.2012 Albinus 
Maßstab: 1:100/1:20 Urspr. .                  
-Grundriß/Ansicht Mast und BS
Projekfbeschreibung:
Ers. f.:

Blatt