﻿ geändert             Tag  Name                                                
Nr., Tag Name btarb.  VASS Touch ] Bundesbahndirektion   Deutsche Bundesbahn   
              tn I    ujss ^eiblh  München im April 1984 *                     
              w                  - Dez 40                                      
                                                                               
                                 I &J Altrang            Dlk 9626              
                                                                               
                    - *                                  2. Ausgabt vom Jww 55 
                      M M 1 ■ «P§ * | | _ |                                    
                        *aoei u persicmspian             B Eb.f Av*$. vtnR 1-W 
