﻿450972
DIS-Beschreibung: D; F3190__KZ;
                    Die Bahn }[BI           
                    DB Telematik GmbH       
                    Region West             
                    Thea-Leymann-StraBe 9   
                    45127 Essen             
                           Datum   Name     
                    Gez.   02.76   Hustadt  
                    Bearb. 02.76   Hustadt  
c                   Gepr.  02.76   Hayer    
Änderung Datum Name Urspr. F3190_KZ_001     
13
14
Maßstab: ohne Planzustand: Bestand
 Format: A3.1 IA
Kabelzubehörplan
Cu
Duisb.-Ruhrort Hafen - Oberhausen West F3190
Dokument-ID: 10000053510
                                                                                                    DB Telematik - intern
Blatt
01
01 Bl.
Ers.f.: