﻿Ubere.
Datum
Datum
Name
F523011 12', Rel. Reichertshofen - Funkt. Reichertshofen Relaisgebäude Reichertshofen Strecke: 5501 München - Treuchtlingen
km 72,344
Bestand       Gez.       10.08.07 OPB, Kamenz 
              Gepr.      10.08.07 OPB, Wahl   
Format;  297x420 Obere.                       
Maßstab: ohne Urspr. |                        
Projektbeschreibung:
Ers. f.:
 Blatt 01 
 01 Bl.   
