﻿           Tag     Name 
Bearbeitet              
Gezeichnet Z. 7.76      
Geprüft                 
99$ 8afo ?*Rieseby   10.
berichtigt
Bundesbahndirektion Hamburg Hmb-Altona. den 6.7.76

DEU TSCHE
Tf
BUNDESBAHN
iO st 10ä
f
mm
Bf Eckern förde
1020.
Dsf 05 01 a
Stw „ £f"
Allfernsprecher- Tastenfeld 45teilig
Ursprung