﻿DIS-Beschreibung: BF_GLBd_5362_MSLS_01_01.dwg
Maßstab: ohne
Format: A2
Planzustand: Bestand freigegeben
■ s
Ubersichtsplan Bedienplatz
Dokumentation 07/2005 Kohrt DB Telematik GmbH         ART Anbindung                                
                            D.KTR-S-P                 "MSLS" (01) Schlachters                      
                            Landsberger Straße 314    Strecke 5362                                 
                            80687 München             Buchloe - Lindau Hbf                         
                            | (Datum |      |Name                                                  
                            Gez.    02/2005 E.-Potsch Dokument-ID:                          Blatt  
                            Bearb.  02/2005 Zeuner    Tkap2057006858.dwg                    01     
                            Gepr.   02/2005 Eberhardt                                       föi Bl 
Änderung      Datum   Name  |Urspr.                 I | Ers.f.: BF_GLBd_5362_MSLS_01_01.dwg        
