﻿/I
ata
DB TeiemaHk GmbH
D.KTR-S-P
90449
60
Nürnberg
Datum
Dame
Daßstab: ohne
Format: A3
Pianzustand: Bestand

Bediennlatz
ART

/ /
/ /
München Hbt
w
VI f
BU
  recke 3500 München Hbt
Hbt
/I
/I
Dorn
ID:
Bearb.
/I
Bauer
Depr.
/I
Eberhardt
Blatt
/I
Bl.
i i
Datum
Dame

BF
GLBd
M
/I