﻿DIS-Beschreibung: BF_DN_5972_01.dwg                     
                             Die    Bah       »I        
                             DB Telematik GmbH          
                             D.KTR-S-P3                 
                             Südwestpark 60             
                             90449 Nürnberg             
                                    Datum     |Name     
                             Gez.   11.2004   Dorn      
                             Bearb. 11.2004   Müller    
Erstellung Doku 08/2005 Dorn Gepr.  11.2004   Verholen  
V W                                                     
Änderung        Datum   Name Urspr.                     
 Maßstab: ohne
Format: A3
 Planzustand: Bestand freigegeben
 Ubersichtsplan ART Anbindung Strecke 5972
 Nürnberg Hbf - Nürnberg Hgbf (Abzw. Fürth)
Dokument-ID: Tkus_2057007696.dwg Blatt  
                                 01     
                                 01 Bl. 
Ers.f.: BF_DN_5972_Ol.dwg               
