﻿                                                                              
                                                                              
                                                                              
                                                                              
                                                                              
01  Kabelsicherung K50 F42" Schulz 20.06.08 Gollmann 23.06.08 Leschke 10/2006 
Nr. • •                     Gez.   Datum    Gepr.    Datum    • •     Datum   
    Änderung                                                  Ubere.          
                                                                                               
                                                                                               
03      F4602         K506      34"(8/26)  München Pasing Stw Fdl-Gauting Basa       BF        
02      F4556         K502      34"(8/26)  München Pasing Stw Fdl-Planegg Hp         BF        
01     F4196.2        K50.2     42"(22/20) München Pasing Stw Fdl-Tutzing Basa       BF        
Nr. Kabel-Nr. neu Kabel-Nr. alt  Kabeltyp             Kabelstrecke             Planungszustand 
Eigentümer: Qß Netz AG
                                                                    RB: Süd
Verwaltung: ßß Systel GmbH
                                                                                                                            RB: Süd/München
2057003363
Lageplan TK
Strecke 5504: München Hbf - Mittenwald (DB-Grenze) Abschnitt km 10,450 - km 11,590
Datum
Name
Format:
Maßstab:
                                                                                                                               Gepr.
297x1540 Obere
1:1000 Urspr.
1967 1967 02/1968 Ivl 09.72
Projektbeschreibung:
Ers. f.: Kabellage_km010m450_5504.dwg
Blatt 01