﻿Nr.  Änderung / Ergänzung ‘ Datum  Name / Stelle  Prüfl aufdaten                          
    1 ■                            ■                    i                                 
    ■ .                                                 a.                                
    j i                     l!                                                            
    .i                                                                                    
    ■ > i                   V            i        Blatt-Nr.:                              
    ■                              ■                                                      
    ■p                                                                                    
    i-                                                                                    
*■ !                                              Pro jekt-Nr.: ,                         
Planungserstetler ' : Planart ' ,*• '                       Datum    Name                 
Bestandsplan.                                                                             
\A/UQinC^ wiBerlin {HarfeflfatdaJ ' .                                                     
         SÄ* £SS£S:« Telekommunikationsanlagen    beai  ’b. 13.04.06 Fröhner 030/74005142 
             Stromversorgungs- und Erdungsplan    gez.      13.04.06 Raddatz 030/74005177 
Berlin, 13.0U6 i.V. Tietz ' BMA / EMA (AuSZUqj    gern      13.04.06 Tietz   030/74005142 
              Ort, Datum. Unterschrift ... . .    Koordinator;                            
i . ^                                                                           i 1 i     
Bauherr
Die Bah
OB Netz AG
Maßstab:
ohne
Format;
AB
Im Namen und für Rechnung des Bauherren
Die Bahn
Dß ProjektBau GmbH Niederlassung Ost PZ B-O-TP BLN 2
Datum:
Unterschrift;
Bauvorhaben:
ESTW-A Nordbahnhof
Abschnitt Humboldthain fa) - Potsdamer Platz (a)
Planzeichen/-Nr./-codierung/ AZ
Dlx01.00.417.00
Höhensystem
Koordinatensystem
ggf. weitere Projektdaten zum Bauvorhaben
ESTW-A BNB
Barcode / Ident-Code