﻿DIS-Beschreibung: BF_SY_  
                          
                          
                          
                          
                          
                          
                          
                          
Ersfellunq Doku 06/2005   
V W             Datum     
Änderung                  
5850__NUDF___01__Ol.dwg
DB Telematik GmbH
D.KTR-S-P3 Landsberger Str.314 80687 München
            Datum   Name      
     Gez.   05/2004 E.-Potsch 
     Bearb. 06/2004 Lindner   
Dorn Gepr.  06/2004 Eberhardt 
Name |Urspr.
Maßsfab: ohne               Format: A3     
Planzustand: Bestand freigegeben           
Systemübersichtspan                        
ART-Anbindung                              
"NUDF" (01) Undorf                         
Strecke 5850                               
Regensburg Hbf, W48 - Nürnberg Hbf         
Dokument-ID: Tkus_2057007531.dwg    Blatt  
                                    01     
                                    01 Bl. 
Ers.f.: BF_SY_5850_NUDF_01_ 01. dwg        
