﻿DIS-Beschreibung: BF_GLBd_5321_NAN_01_01.dwg          
                                                      
                             DB Telematik GmbH        
                             D.KTR-S-P3               
                             Südwestpark 60           
                             90449 Nürnberg           
                                    Datum    Name     
                             Gez.   08.06.04 Dorn     
                             Bearb. 08.06.04 Lehmann  
Erstellung Doku 06/2005 Dorn Gepr.  08.06.04 Verholen 
V W             Datum   Name |Urspr.                  
Änderung                                              
Maßstab: ohne               Format: A3    
Planzustand: Bestand freigegeben          
• •                                       
Ubersichtsplan Bedienplatz                
ART Anbindung                             
"NAN" (01) Ansbach                        
Strecke 5321                              
Treuchtlingen - Würzburg Hbf              
Dokument-ID: tkap2057006810.dwg    Blatt  
                                   01     
                                   01 Bl. 
Ers.f.: BF GLBd 5321 NAN 01 Ol.dwg        
