﻿Reserve
 F 1.6
                                              
                                              
                                              
                                              
                                              
                                              
Nr. | 1 • • 1  Gez. Datum Gepr. Datum 1 • • 1 
      Änderung                        Ubere.  
Datum
Eigentümer: DB Netz AG
Verwaltung: ßB Systel GmbH
         RB: Süd/München
 I
 ■
Stromlaufplan

                                          2057001029
 TKES
   -Raum, BSH Hp Obermenzing
Strecke: 5501, München - Treuchtlingen km 7,339
Datum
Be
fand
Gez.
12.10.06
Gepr.
12.10.06
Format:
Maßstab:
297x5% |Obere.
ohne Urspr.
Name
OPB, Kamenz
Projektbeschreibung:
OPB, Wahl
Blatt
01 Bl
Ers. f.: