﻿sl
I I
IKI SW03 UT-Technik in Bestand
f)
LWL F 770080 in Bestand
Tkap
DB Intern
e)
SCADA in Bestand
a)
Einbau
{6457003680}
         g)    Dämmert    Butterer   Woydethovski          
10             04.2014    04.2014    03.2014               
09       f)    T&P Becker TSPTsdvner                       
               14.01.2014 15.01.2014                       
08       e)    Dämmert    Schlereth                        
               18.03.2013 19.03.2013                       
01       a)    Drummer                                     
               24.11.2000                                  
Index ■ ■       Bearb. /  Gepr. /      Abnah. /   Übnah. / 
      Änderung   Dalum    Datum         Datum      Datum   
m
NETZE
DB Netz AG
Regionalbereich: Südwest
1189x420
Ersatz für: Dti_14_008_1_2.dwg
AutoCAD-Zeichnung
Ersatz durch:
RM
1405/51 Basa
Plannummer
1:50
Erstellt:
Geprüft:
Freigegeben:
Planerstellung:
            Mobllity Networks Logistics
DB KommunllaikMistecMk GmbH
f*yn
22.02.2001
Längs
24.06.2002
Frech
02.12.2002
Frech
Datum
Name
de
mm
Aufstellungsplan Tk
Mannheim Hbf Tunnelstr. 5-7 68163 Mannheim
BASA
Erdgeschoß
RM
01 (01)
n a
