﻿i
?
r
•>
x\
1
i]
"“'"l
    4
I
................— Iw................
j
-A
t

I
			
I
I'
nmtamMh...
                                                                                                                                                                                                                                                                                                                                                                                                                                                                                                                                                                                                                                                                                                                                                                                                                                                                                                                                                                                                                                                                                                                                                                                                                                                                                                                                                                                                                                                                                                                                                                                                                                                                                                                                                                                                                                                                                                                                                                                                                                                                                                                                                                                                                                                                                                                                                                                                                                                                                                                                                                                                                                                                                                                                                                                                                                                                                                                                                                                                                                                                                                                                                                                                                                                                                                                                                                                                                                                                                                                                                                                                                                                                                                                                                                                                                                                                                                                                                                                                                                                                                                                                                                                                                                                                                                                                                                                                                                                                                                                                                                                                                                                                                                                                                                                                                                                                                                                                                                                                                                                                                                                                                                                                                                                                                                                                                                                                                                                                                                                                                                                                                                                                                                                                                                                                                                                                                                                                                                                                                                                                                                                                                                                                                                                                                                                                                                                                                                                                                                                                                                                                                                                                                                                                                                                                                                                                                                                                                                                                                                                                                                                                                                                                                                                                                                                                                                                                                                                                                                                                                                                                                                                                                                                                                                                                                                                                                                                                                                                                                                                                                                                                                                                                                                                                                                                                                                                                                                                                                                                                                                                                                                                                                                                                                                                                                                                                                                                                                                                                                                                                                                                                                                                                                                                                                                                                                                                                                                                                                                                                                                                                                                                                                                                                                                                                                                                                                      ■
I
				

T
.1
II'
* I
f.....'""""''"f1"""""1.......jpmm«....................
                                                                                                                                                                                                                                                                                                                                                                                                                                                                                                                                                                                                                                                                                                                                                                                                                                                                                                                                                                                                                                                                                                                                                                                                                                                                                                                                                                                                                                                                                                                                                                                                                                                                                                            i.
i
1
1
JiniIJimiDuij/.lj
l?
i.
i-
.1.
............ n I ,
i>iimni>n|niii,j
/•“‘"inuiijlimn
;
IIIIII3IIIIIIIIIIli|I||||||

         II ll|lll\|||'v""""JHrJiiiidiiiJillljlj)'m.]ii|..)il4j4Hiv.Ji <uiuiiil_1,,il.<l,4iA.|.ji||li;||i„..„I„„.......mimifnM in »v iinlii                                               lll
                                                                                                                 .....,riiimamiiiiii‘injijr;iiiJlJ]JiniiniitIU,i.3iii.iiii|iuiv-u|i|ik<r,.]|]Himi^I,J,
)Jlllllllllllhi>iUJI|jVJIII|3.l'-
1
IlljIlmmunilJJ

IllIjIIIIIIJ
		
i.i > 1111111 < 11111111 j ] i n 11 ][i ... 11111111,, i j ,j 11

nmmwuiitonnnnl
ilj/R'ijulljilrinym’
|)ÖJW‘*nrtninnnj^lin........
,1
                                                                                                                                                                                                                                                                                                                                                                                                                                                                                                                                                                                                                                                                                                                                                                                                                                                                                                                                                                                                                                                                                                                                                                                                                                                                                                                                                                                                                                                                                                                                                                                                                                                                                                                                                                                                                                                                                                                                                                                                                                                                                                                                                     ■
ijiiniiiiuuiiiiijijuj||
                                                 * 1                        i
h111ijiijminnjun11J ||ij||iiD]|JU](yi|||J l)iiUil'Dj|jJiIuj;iij]|
			
J jn...^niümi1?nironramiiil||^lulillllluuJj
f
I
f
fl1
•]
-iill
pirotyilmnnnpuiiii
► «i 7
          .......... X
  1 / .
  I 1     i JtlJJi,ninnW.nnn.nI>,i»»»ii»i\iiIimi*jii1|jJ|pniannj)3ityninl,fl,uni.n\yj\Ii|h^1\IIUII
    xr
    f fl
                                                                                                                                                                                                                                                                                                                                                                                                                                                                                                                                                                                                                                                                                                                                                                                                                                                                  W
...
null
liililü'iiiiiiniuiiiiiil
)iiiJiiiiiiiiiiiiiiiliiiiinl
UlUifliimitaflnuiiiii
                                                                                                                                                                                                                                                                                                                                                                                                                                                                                                                                                                                                                                                                                                                                                                                                                                                                                                                                                                                                                                                                                                                                                                                                                                                                                                                                                                                                                                                                                                                                                                                                                                                                                                                                                                                                    ■
                                                                                                                                                                                                                                                                                                                                                                                                                                                                                                                                                                                                                                                                                                                                                                                                                                                                                                                                                                                                                                                                                                                                                                                                                                                                                                                                                                                                                                                                                                                                                                                                                                                                                                                                                                               niiuuiiiiuniijiiiunnl
l!|!IIIi;illlllllUllllilllII' /
j|iii|ii|IHIIiii[III]ll
fllUUtonPPnqqiJ
1
   1in,,,HllIIIIiyi)llllllllj| |[|Jj|||iHjjjj||||unju|1|1j
                                                                                                                                                                                                                                                                                                                                                                                                                                                                                                                                                                                                                                                                                                                                                                                                                                                                                                                                                                                                                                                                                                                                                                                                                                                                                                                                                                                                                                                                                                                                                                                                                                                                                                                                                                                                                                                                                                                                                                                                                                                                                                                                                                       4
n.u.dumM,nu^IIIJn,IlUraijr(l|niiiilliii
Jli,Liiiiiiinjjiji^|iiii|||III| 11 u 111 .< 1111111111111 ^ i > > ■ 1111111
ui
)i|iniiiiuii)üniim|i||inj
liiiiiiiiiiiiiiiiiiiiii'ii'iiii|||
imimiiiiiniinii *
ljllllllll|;iiIIII||i|l|Hl]]
r~....*.j-.-....,....
. i
]
I
JlmlillljlllIIIII,lllllll
hiiiiii...
uinimton
L
          ,1III,]II"UU|J Jniiiiiiiiiiiiiiuiiiuii
PJlAluiIliiUJiliiiiiiil J|||jiiii;iiOi|i;niiiiilI

r
r
                                                                                                                                                                                                                                                                                                                                                                                                                                                                                                                                                                                                                                                                                                                                                                                                                                                                                                                                                                                                                                                                                                                                                                                                                                                                                                                                                                                                                                                                                                                                                                                                                                                                                                                                                                                                                                                                                                                                                                                                                                                                                                                       »niiiniiuiiiiiini
                                                                                                                                                                                                                                                                                                                                                                                                                                                                                                                                                                                                                                                                                                                                                                                                                                                                                                                                                                                                                                                                                                                                                                                                                                                                                                                                                                                                                                                                                                                                                                                                                                                                                                                                                                                                                                                                                                                                                                                                                                                                                                                                         IT
hii/i|i..,,|ii|;imiii|I!U||
'juniiiiiuiiiiiiiiii
nin|i[U|ii' Tin.'inl|il
N"n",ulllllmi*»
linriii.iiiiii.it ul
- AJ)
■ii
,!?■
1—
Dl
W\
1
1.
411

                                                                         
                                                         Tklk DB Intern  
                                                         {2057018637} B  
a) Erneuerung zw. km 133,919-133,923 mit neuer Mehrlänqe                 
297x1189
AutoCAD-Zeichnung
m
llllil
“ ff * f C? i
ißn
■I
Ul.r-
1
f C;

I0U iiinr*.
lliJi
IJ .i|
V V*
nijiiiiinmiiinjrtiiiiijllii
iu|.ix|..i„ulllj|linilini|il|
iuiU||imjiiinjnjipi1qij|
4 I
iill
J
iiiiiiiliiliiiillllimlMliiiiliilllJililiii.'ijlilii.'llliilijMllJlil
                                                                                                                                                                                                                                                                                                                                                                                                                                                                                                                                                                                                                                                                                                                                                                                                                                                                                                                                                                                                                                                                                                                                                         •Jl iiiiiF AiII' "liM-
31'
4-jTJ
l y
an
iiLni
fl
11.311
/
liii<niDiiiiaiinniiliiini)iHiiiiiiiiiuiiuqiiiiiiiiiiil!iniinfl
£
nllliiil
Old ff".
„j.' ■ll.ilL -\\'
1111
J]
   / i
illlliiin 1» Mii|i
|l
[-fl
iniiiioiii
1111111
"j-
   ■
ii
■uiiiiit
•iiinii i
ii»
)
                                                                                                                                                                                                                                                                                                                                                                                                                                                                                                                                                                                                                                                                                                                                                                F \ J]}1' ' J
□>c;
■iiijiiiii) I
hu
i.#n
!il" tf*
w
ur
I-
•II
3
|liujtti3jn»»Jiiiijpjiminn«3jmnjiii|iii|i|l>3nnn|i/qni|
     F
  II- 4
Ptlj
■'lllllll
?h. y
lllr Jll.i
4
||i|iinniini|niiniiiuiiii|ni!ij||ijinnju|uDi'/4iiniiiiiin|i|jJjii>iMjn3>qiinDi)iU|iilllllnninniii44m*iinu/4iiiiii/4niri3j4iii*ii;i3Mi>4iiVJi|inmrii>in3in3*4'3iniiiii'3innIlnni'j-4.i.jniJ|

[iiii'iiiii|iiiiii|i;iiiiili|i;ui;liilljii"llji'3]illi<l)lijl|;l)i<lll
F*'*)
f ”%M F\ /
JJinitt‘ , ifli/ jpiP" *
piiimiiniii;iiiiii.|iii,:ai;3ni,iniui,iirtiin..,in,iniii)iij]]jj |inunuuili‘4iiiii«n;iivji|'j'*iiiiii'iijii;*iKUn]ji|i;iTUiiiiia'
F «J
JliiiP -11
1)111
M
!'
ii«i I'« 1
I
1
-«um-
.1 ü
,ii«; fl
■II -IV
\ lll
Illlllll I
nili
|li;i"i')iil)i3')iiiuuIMiiij'iullIli''«'i'i''4«ii''U|JliiiUiii|i)'ll|j |lliiiniDHunjjiiuii|iji'j'iuii43iul)iiillii|i)Jji|,J,3inii''''W'ci'i'''U'3inrtir--ii'3J3)|j'i'3i”’-m43iu'l)iJ» nillirtritwiulllj

			
li.,iiD.i.|,i,iiiiiii.inDi|3iiiinii||i|i||iiin.ii)iiiiiiiuniiiiii
Ml'nillllllllllllmilllllHllllllllllllH
■l)
riiii,i^i«u>,iili;iihiiii,iiaii,ii,iiiiDjimiiuii,i'Jni'4ii|‘-i-,ilD,iMi;'i',xInii-wy,jnftiiiiui)iiiiiiaifliuiJpjUii'ni|l)illiiljl]
    1
'»Jilii
lr
                                                                                                                                                                                                                                                                                                                                                                                                                                                                                                                                                                                                                                                                                                                                                                                                                                                                   llliiiui
       il
7                t
i*     < .
i      II
   iiiiiniiiiiiiiiiiiii
i
>1

A
4""
F
|iijii]iinnlliijiiJli^'iiJ|ii'|||ilJiillijniij1'iinii''.-4ijilllliIiiiJii'iJiii'iiiiiiiiiiilüi|]IIIIinii'liiilI
Illlllll;
i/ f "J
Ymv <m1,,1lh llll,n,,I)t „1I."»/>J
HlUdh. .Ml il'1 llJllmin. ö,|l)|r
                                                                                                                                                                                                                                                                                                                                                                                                                                                                                                                                                                                                                                                                                                                                                                                                                                                                                                                                                                                                                                                                                                                                                                                                                                                                                                                                                                                                                                                                                                                                                                                                                                                                                                                                                                                                                                                                                                                                                                                                                                                                                            Jl- pl1*
                                                                                                                                                                                                                                                                                                                                                                                                                                                                                                                                                                                                                                                                                                                                                                                                                                                                                                                                                                                                                                                                                                                                                                                                                                                                                                                                                                                                                                                                                                                                                                                                                                                                                                                                                                                                                                                                                                                                                                                                                                                                                 ■Hllllljl'1 -flfluptap)
-lj)]llll11
                                                                                                                                                                                                                                                                                                                                                                                                                                                                                                                                                                                                                                                                                                                                                                                                                                                                                                                                                                                                                                                                                                                                                                                                                                                                                                                                                                                                                                                                                                                                                                                                                                                                                         •ill nihijni

r./'
L
pvmnn-
hu min
|jhniii>>i>iiimii/>uJ»ii>tiii)i]niiiiii»iii;>iuu*iiuimiu<iii>liiitiliiiiii1liiu])iini;iliii>>iifl]]
                                                     y
i
-'Uliiiiiii
     iiimii1
......
     1 ™!
L.

Ii
JllUüD

  mqn
Jiüii
i.l
in"1
ii
Imin
piiiiiAni)
iijiinii1
|niljUl'*'i]in|)illllllllinillllllJlIl)i«<lTl]illl.lJ1Jlinii'l.''Jl,1,lil.i)lll)Mmmill|iilin«UIjl1 llII«Ulininil,jlll)iil|i^JH;i)inijifliirJHliiiiiini/v-~~/ir-r-JiirrJlilliiijiiv-i]Ai,,/’,Hü])j
                                          All jm? ili Ju.____________________________________________«dt_________________flll[.ll)1.ll)h.iTllÄn.ilflIJ?,1i___________________________________
■ 111111111J111J111J111111J11J 1^311J1111J1IJ111111111 ] 111111 lj| 11 IJ 11J! ] 111 Jl 111!J 111111111111111J1111J111111J1 |i 1
|nnnnniiiiinnnnnqniMiiniinimrtUim«nnrt|fUiuuuiiiuiiimniniinTjninnniiiiimiiiiiihnmrihnnnB'lfTii~rni1
nnWuii0iiiiiiiiii1iiijniniiiiiiuiuuuuiimiuiuinuinujuiiiiiiiiijiiiiiiijiiiiiiijiji]i
illOij'inn- iHmi'            v1!?- -■■••n**i,iilDiiiiii‘liiili*i^,iillll>*iii-llimiiiiliMlll*,,,,ll,l,lllllii>-lli,ull,i^,llullllll,,,|al
                                                                                                                                                                                                                                                                                                                                                                                                                                                                                                                                                                                                                                                                                                                                                                                                                                                                                                                                                                                                                                                                                                                                                                                                                                                                                                                                                                                                                                                                                                                                                                                                                                                                                                                                                                                                                                                                                                                                                                                                                                                                                                                                                                                                                                                                                                                       1
                                                                                } iiiiiII iiillll n. nun
'ii
[jinllii
llillü1
i


  mini]
  «Uli
  iiiniii
  j'i»j
  il
iiiiull
HP
««
uni
imii'
il) «ml
,il
m
i1 .1
«iiMiiJIiiiiij. ij>
•il
•il
K

iiniii
fi
in
lll!
3l<
                                                                                                                                                                                                                                                                                                                                                                                                                                                                                                                                                                                                                                                                                                                                                                                                                                                                                                                                                                                                                                                                                                                                                                                                                                                                                                                                                                                                                                                                                                                                                                                                                                                                                                                                                                                                                                                                                                                                                                   ■ . •«■
                                                                                                                                                                                                                                                                                                                                                                                                                                                                                                                                                                                                                                                                                                                                                                                                                                                                                                                                                                                                                                                                                                                                                                                                                                                                                                                                                                                                                                                                                                                                                                                                                                                                                                                                                                                                                                                                                                                                                                                                                                                                                                                                                                                                                                                                                                                                                                                                                                                                                                                                                                                                                                                                                                                                                                                                                                                                                                                                                                                                                                                                                                                                                                                                                                                                                                                                                                                                                                                                                                                                                                                                                                                                                                                                                                                                                                                                                                                                           I
lll
lllmi
} .1 ' I
I ff /
J
-I'
lll
II
Illllllll
•),
!
                                                                                                                                                                                                                                                                                                                                                                                                                                                                                                                                                                                                                                                                                                                                                                                                                                                                                                                                                                                                                                                                                                                                                                                                                                                                                                                                                                                                                                                                                                                                                                                                                                                                                                                                                                                                                                                                                                                                                                                                                                                                                                                                                                                                                                                                                                                                                                                                      I
liiijiiiiiii
|i|i]inl'ii|i||iil]i-i.- ..,.|,'4i.i3i.iu.r*ul,'l..iiiii^Iliiliiii. .t(,3u43i|uivtuui*"J43irTlV^
                   I'

1
i
liiiiiiifli
r
 , ab
ii-
u'
ii

     i
-•I.4rri. — -• -V‘i-
. ...jI*•... 111
II
■# 'ffllliiiiniill'
1.
P |f
         I
llllllllllll

„1
iDl
}
p
b
fiiiiiil
>i
ipilll lllllll tapp
i
r
t
Will
ml
Ml
   Jll)
il
hüb
*E
iil1
f

                                                                                                                                                                                                                                                                                                                                                                                                                                                                                                                                                                                                                                                                                                                                                                                                                                                                                                                                                                                                                                                                        .
4In' 'I
   jJLU
   4
1iirn
r
t.
<
nnjU,
.Ui
U
■;|ii
jiw
f
L
ji 11.
- -w
•tl
.1
■1
f;
in
/

i1
/

$

ii"
/

                                                                                                                                                                                                                                                                                                                                                                                                                                               /
/
i
i y
01
Index
a)
• •
Änderung
Demir
17.11.2014
                                                                                                                                                                  Bearb. / Datum
Aratma
17.11.2014
Gepr. / Datum
Protrauski
10.09.2014
                                                                                                                                                         Abnah. / Datum
Demir
17.11.2014
f f
                                                                                                                                                              Ubnah. / Datum
DB Netz AG
Regionalbereich: Süd
Ersatz für: DLK 5362 KF
Ersatz durch;
Plannummer
■x:
Miip jiM)
Du

                                                                                                                                                                                                                                                                                                                                                                                                                                                                                                                                                                         il "u^jS
Ai# Iiiiiiiiiif i^ifdit*
I)|!|||'||% nippilln, \
taA% (|1|jjllr \
",

V
p
s
K
\
1/1000
Erstellt:
Geprüft;
Freigegeben:
Planerstellung:
            Mobility Networks Logistics
DB Kommunikationstechnik GmbH
12.1981
12.1981
Datum
de
PH-Ne
PH-Ju
Name
Lageplan TK
5362
Buchloe - Lindau Hbf
133.435 134.336
01
18
19
20
21
22
23