﻿                                                                                                           
                                                                                                           
                                                                                                           
                                                                                                           
                                                                                                           
                                                                                                           
Nr. • •                                                    Gez.    Datum   Gepr.   Datum   • •     Datum   
    Änderung                                                                               Ubere.          
Verwaltung:                                               Aufstellungsplan TK                              
DB Dienstleistungen              Eigentümer:              TK-BSH                                           
Systel GmbH                      DB Infrastruktur j |ßj   Hp Grub                                          
Regionalber. Süd/Büro München    Niederlassung Süd        Strecke 5600, München Ost Pbf - Simbach          
                    2057000096                            km 14,265                                        
TKAP                                                                                                       
                                  Datum     Name                                                           
Bestand                   Gez.    10.01.08  OPB, Schmidt  Projektbeschreibung:                Blatt 01     
                          Gepr.   10.01.08  OPB, Wahl                                                      
Format:     297x420       • •     03.06.08  Kosikowski                                        01 Bl.       
                          Ubere.                                                                           
Maßstab:    1:20          Urspr.                          Ers. f.:                                         
