﻿a)
                                                    
                                                    
                                                    
                                                    
                                                    
                                                    
                                                    
                                                    
                                                    
Index ■ *      B earb. / Gepr. /  Abnah. / Übnah. / 
      Änderung   Datum   Datum     Datum    Datum   
     ohne        Erstellt:          12.2009         
                 Geprüft;           12.2009         
                 Freigegeben:                       
                                     Datum          
                                       de           
DB Intern
{6457007229}
03
NETZE
DB Netz AG Regionalbereich:
297x584
Ersatz für Dlks_4043_sp_zw_2_3.dwg
AutoCAD-Zeichnung
Ersatz durch:
RN
.0101/13 F4-043 2.3
Plannummer
Drees
Schlereth
Name
Kabelspleißplanplan Tk
CU
F4043 32"1-/32!
Neustadt/Weinstr. - Wörth
2.3 - Zwischeneinführung Landau / Edenkoben
10
7