﻿

                                                                                                                                                                                                  :nwjftij.wJWnii
f ,,.. ■ .         .
; l.', . '■»
t? ÄH»
;—*
mimMtmf       MTiwiMi>i ii. ii h 11 n, 11 > i 11 iiü \ *j ji ftfri I



Sadk-rs, Rr:         _____*9£‘$
                                       fs§r i/örxiehcr ihr rVro >.
		
wrr,muMmm/m

                                                    >/f &/
Shtmkhi ■ R u ** t -7 - /V& £jß$


Rr'ßrf
                       P'               .............
nRjijii BWWKNW ■!
 maischt- Reichsbahn
ah ütnctsieröf
r.
:><
L?Ü**J
J:;S
J)ss.ß 480 . SS?,
 B

i
«I»y;!i
