﻿Tklk
DB Indern
• •
Übernahme Kabellage Cu# Neubau Kabel F7128 (Ivl vom 14.04.2010)
{2057016113}
01
Index
a)
• t
Änderung
Grundner
14.02.2014
                                                                                                 Bearb. / Datum
N A D
21.02.2014
Gepr. / Datum
Horwitz
10.12.2008
                                                                                            Abnah. / Datum
N A D
21.02.2014
i •
                                                                                               Ubnah. / Datum
DB Netz AG RB: Süd/München
297x970
Ersatz für: 105541AN.tif
AutoCAD-Zeichnung
Ersatz durch:
Plannummer
1:1000
Erstellt:
Geprüft:
Freigegeben:
23.12.1970
Datum
de
BD München
Name
Lageplan Tk
Strecke 5541: München Westkreuz, W378 - Herrsching km 12,012 - km 12,462
DB KT GmbH RB: Süd/München