﻿                                                                                                             
                                                                                                             
                                                                                                             
                                                                                                             
                                                                                                             
                                                                                                             
Nr. • •                                                  Gez.        Datum   Gepr.   Datum   • •     Datum   
    Änderung                                                                                 Ubere.          
Verwaltung:                                             Gestell-/Verteiler-/Schrankbelegungsplan TK          
DB Dienstleistungen              Eigentümer:            Kabelabschlussgestell                                
Systel GmbH                      DB Infrastruktur j     KAG-Raum, Stellwerk                                  
Regionalber. Süd/Büro München    Niederlassung Süd      Ubf München-Riem                                     
2057000052                                              Strecke 5600, München Ost Pbf - Simbach              
TKAG                                                    km 7,160                                             
                                  Datum    Name                                                              
Bestand                   Gez.    10.01.08 OPB, Schmidt Projektbeschreibung:                    Blatt 01     
                          Gepr.   10.01.08 OPB, Wahl                                                         
Format:     297x780       • •     03.06.08 Kosikowski                                           01 Bl.       
                          Ubere.                                                                             
Maßstab:    ohne          Urspr.                        Ers. f.:                                             
