﻿Maßstab: ohne
 Planungszustand: Bestandsplan
Format: DIN A2
Benennung: Erdungsplan GSM — R
Strecke Berlin Charl.-Blankenh. Nr. 6118   
BTS-Standort Trebitz            km 54,537  
Elektrifzierte Strecke                     
Dateiname: BF MR 22018 OOl.dwg    I Blatt  
                                     1     
                                 1 Bl.     
