﻿DIS-Beschreibung:
SIEMENS                                                        MaDstab: - Format: Auto CAD R14 
Siemens Building Technologies                                                                  
Region Bayern, Von-der-Tann-Str. 30    DB Netz AG              Planungszustand: Bestandsplan   
90439 Nürnberg, Tel.: 0911/654 2343    Niederlassung West      Belegungsplan WSP-Sprechstelle  
                                       Hansastraße 15                        ELA               
                                       47058 Duisburg                   Strecke 2691           
                                                               Feuerwehrraum Flughafenbahnhof  
                                                                                               
                                              Datum      Name                                  
                                       Gez.   17.06.2004 Goder      Dsl 900.2691.000.005       
                                       ßearb. 17.06.2004 Goder                                 
Gepr.
17.06.2004
Siegritz
Dateiname:
G33051-N3Ö05-V017-R
01 BL