﻿ESTW Rosenheim Korekturen
Änderung
07.2008
Fischba.
03.2008
Dienstleistun
Maßstab: ohne
Format: 297x594
Telematik
Planungszustand: Bestand
DB Telematik GmbH -KTR-Landsberger Str. 314 80687 München
Benennung:
• •
Datum
             Datum Name           
     Gez.    31.05.06 Schulz      
     Bearb.  31.05.06 Hermann     
     | Gepr. 31.05.06 Blumenstock 
Nam^ | Urspr.                     
Baugruppenanschaltung MACS BSH Brannenburg
Dateiname:
Blatt
Ers.f.: Uebersicht_____Brannenburg_MACS___^BSH.dwg Ers.d.:
01 Bl.