﻿Tkee
DB Intern
{2057017641}
Index
• t
Änderung
                                                                                                  Bearb. / Datum
Gepr. / Datum
                                                                                            Abnah. / Datum
• i
                                                                                               Ubnah. / Datum
DB Netz AG RB: Süd/München
297x420
Ersatz für:
AutoCAD-Zeichnung
Ursprung:
Plannummer
ohne
Erstellt:
Geprüft:
Freigegeben:
18.06.2014
20.06.2014
09.07.2013
Datum
de
Grundner
Leißner
Kosikowski
Name
Erdungsplan Tk
Hp Batzhausen - Tk-Raum - KE-Gestell
Strecke 5850: Regensburg Hbf, W 48 - Nürnberg Hbf
km 47,750
DB KT GmbH RB: Süd/München