﻿     1 ■ .1- ■ -■                                         -4- .■ *V-f ■ .■. .* 
                          ■ V1,     f. | r®0              i ** ■■              
                  I ■ ii» i'                Jv, •                              
   , a':p > ,.V ’                                 Z&z 8f. ■HännusChhß          
-■         "J ' 7 ___-         'p J                       ■ - -                
1  + “ mr * m     ’        ’ * ...                        u-l, -|_J_ T. J      
        ■ "«■ ■ i         fr?1. \ 1 ■ .*■" ifc ,f" '■ j '                      
   Änti*ruß§      Tag     Mmm       : F8A Gifffatf ■ • • V* ■■                 


                                                                                                                  ''          ■  L-,    ■  .  :
                                                                                                                                                                                                                                                                                                                                                                                        ( ' ■■

    ßcxsot Hvhßnböcka

                                                                      R&umpl&rr , Mfjfferikejfer

■&\ -v;':

■          “ V r
 matt
 /