﻿                                                                                   
                                                                   Tklk DB Intern  
b) Übernahme Kabellage Cu, Neubau Kabel F7128 (Ivl vom 15.04.2010)                 
a) Erg. M km 28.207, 28.215, 28.246, 28.255                        {2057016137} B  
297x1350 |_______________________|____________
                                                                                                                                     AutoCAD-Zeichnung
Grundner
N A D
Horwitz
N A D
Ersatz für: 1062089.
Ersatz durch:
02
b)
01
a)
• •
Index
Änderung
10.01.2014
H&P
12.2002
                                                                                                  Bearb. / Datum
10.01.2014
Gepr. / Datum
10.12.2008
                                                                                             Abnah. / Datum
17.01.2014
« •
                                                                                               Ubnah. / Datum
DB Netz AG RB: Süd/München
Plannummer
Erstellt:
Geprüft:
Freigegeben:     23.12.1970
                                                                                                                                                                               Datum
                                                                     BD München Name
Lageplan Tk
Strecke 5541: München Westkreuz, W378 - Herrsching km 27,688 - km 28,553
DB KT GmbH RB: Süd/München