﻿BF
MK M
/I
ahn
DB TeiemaHk GmbH
D.KTR-S-P
90449
60
Nürnberg
Datum
Dame
Daßstab: ohne
Format: A3
Pianzustand: Bestand
[an
recke 5302
Hbt - Neu
im
Grenze
m
/I
Dorn
ID:
Bearb.
/I
er
Depr.
/I
Verholen
Blatt
/I
Bl.
i i
Datum
Dame
BF
MK M
/I