﻿DIS-Beschreibung:
        
  7251  
1       
■       
  i [ 1 
   ! II 
Die Bahn
DB Telematik GmbH
KOR-NW-B
Kriegerstaße 1G 30161 Hannover
Datum
Name
Maßstab:
Formate A3
Planzustand: Bestand
freigegeben
■ ■
Ubersichtsplan
Bahnhof kabelübersichtslageplan 27232 Sulingen
                                                           Abst. Sulingen
Gez.
05.03.03
Rempel
Dokument-ID: 10000016507
Bearb.
26.02.03
Trader
DB Telematik-Intern
Aktualisierung
05.03.03
Rempe
Gepr.
10.03.03
Trader
Blatt
01
01 Bl.
Änderung
                                                                                                                  5
Datum
Name
Urspr.
Ers.f.: H Dlk 21511.01
6
7
8