﻿                                                                              
                                                                              
                                                                              
                                                                              
                                                                              
01  Steuerkabel ausser Betrieb 10.11.08 NAD   10.11.08 NAD   17.04.08 Edinger 
Nr. • •                        Gez.     Datum Gepr.    Datum • •      Datum   
    Änderung                                                 Ubere.           
TKUS                                 
                        Datum   Name 
Bestand          Gez.   03.2008 Denk 
                 Gepr.  03.2008 Denk 
                 • •                 
Format:  297x780 Ubere. 03.2008 Denk 
Maßstab: ohne    Urspr.              
Projektbeschreibung:
Ers. f.:
Blatt 01