﻿Bearbeitet durc h: DB Systel GmbH                 
                Mobility Süd                      
|DB|            k, i i, i T.ST-S-MU-P2            
                Networks Südwestpark 60           
                Logis ric S 90449 Nürnberg        
{2057011548}                                      
Tklk                                              
                                Datum      Name   
                         Gez,   20 12 2010 Liebig 
Bestandsplan             Gepr.  20 12 2010 Wünsch 
hormat:         420x1350 Obere. 14 01 2011 Edling 
Mallstab:       1:1000   Urspr. Dlk 5902 AF       
Kabellageplan Th
Bf Nürnberg - Stein
Str, 5902 Nürnberg Hbf - Schnelldorf (Creilsheim)
km 5,454 - 6,367
Str 5951: km 5,278 - 5,519
Str 5905; km 0,242 - 0,464
Projektbe Schreibung:
Blatt
  01
01 Bl.
Ers. f.: Dlk 5902 AF
A I
i'-'L   |—
A /-*
                                                                                                                                                                                                                                                                                                                                                                  r—1