﻿KABEL
COIMTACTi
KABELCONTAO r ÖmtolH
73760C^aidem , Bly-Bdnhcjn-S^flßfc W Tai.: OT1S6/S BO 00-0
Interrwt www.katratccntsLl de Fax: QiM / 9 BO 05-70
Die Bahn
DBTelematik
Maßstab: ohne_________________| Format: A3
Planungszustand: Bestandsplan
                                                       freigegeben
DB-Telematik GmbH
kff-sw-p
Benennung;
D
a *
Ubern. Bestand
22.06.06
SJ/DD
Lammstraße 19 7613B Karlsruhe
Datum
Name
C
Dokumentation
22.03.06
J.K.
Gez.
08.10.04
Drees
Dateiname:
B
Dokumentation
20.03.06
J.K.
Bearb
06.10.04
Schlereth
A
Dokumentation
06.03.06
J.K.
Gepr.
12.10.04
Hertwiq
Zust
Änderung
  5
 Datum Warne
Ers.f.:
6
7
Bahnhofshabelübersichtsplan Hp Cappel
Str: 4950 Crailsheim - Eppingen
Dlk_85_225_1_1.dwg
Blatt
Bl.
8