﻿Planungszustand: Bestandsplan freigegeben
Datum
Gepr.
Datum
Ubere.
Datum
Format: 297x594
Aufstellungsplan
Hp Oberaudorf
Betriebsgebäude Fm-Raum
km 25,003
ESTW Rosenheim Korektur
Änderung
                                                                                                                     Blatt
Ers.f.: Auf stell
Raum.dwgl E r s ^cD
                                                                                                                                        Bl.01