﻿DB Telematik
DB Telematik GmbH Region Nord-Ost D.KFF-NO-P TK-Planung
DI© Bahn |DM§
Martin-Luther-Str. 1-1a
10777 Berlin
Tel.: 030 / 297 - 55420
Berlin, 25.04.04
Ort, Datum, Unterschrift
Bestandsunterlagen
Telekommunikationsanlagen
♦ ♦
Ubersichtsplan FB-Kabel
        Datum       Name 
bearb. 26.04.04  Schunke 
gez.   26.04.04 Schinkel 
gepr.  26.04.04 K.John   
Auftrags-Nr.:
2TB057
Bauherr
IS) Netz
Im Namen und für Rechnung des Bauherren
Planzeichen / - Nr. / - Codierungen / AZ
Deutsche Bahn Gruppe
Niederlassung Ost Anlagenmanagement Region Nord, Teilnetz 1 N-O-BA N1
Baumanagement
DB ProjektBau GmbH Niederlassung Ost G.B-O-TP BLN2
Die Bahn
Martin-Luther-Str. 1-1a
10777 Berlin
Tel.: 030 / 297 - 55228
AP - TK.101
Ort, Datum, Unterschrift
Maßstab:
Bauvorhaben:
ohne
Strecke 6011; Abzw Biesdorfer Kreuz, W61 - Ahrensfelde
Höhensystem
Grunderneuerung Oberbau
NN
Format:
   297x420mm
S-Bahnhof Ahrensfelde
Koordinatensystem
                                                                                                                                           Soldner Netz 88
ggf. weitere Projektdaten zum Bauvorhaben
Bauwerksnummer
Strecke
Kilometer
Brückennummer
Belastungsannahmen