﻿Verwaltung:
DB Dienstleistungen Systel
Regionalbereich Ost
Eigentümer:
DB Infrastruktur Netz
Regionalbereich Ost
                 Tkai_52__0803_6135_BRSF_001                                                              
                        Datum        Name                                                                 
Bestandsplan Tk  Gez.   18.01.08     Erbert    Projektbeschreibu ng= Strecke 6135                 Blatt 1 
                 Gepr.  21.01.08     Zech                        Bahnhof Rangsdorf                        
                 1 4                                             * *                                      
Format;  A 3     Ubere.                                          Übersicht Innenraumkabel Stw Rst   1 Bl. 
Maßstab: ohne    Urspr,                        Ers. f.:                                                   
5                6. _II___                                       7 8                                      
