﻿01
Tkap
DB Intern

57013504}
Index
• i
Änderung
                                                                                                   Bearb. / Datum
Gepr. / Datum
                                                                                              Abnah. / Datum
• t
                                                                                                 Ubnah. / Datum
DB Netz AG Regionalbereich:
1:20
Erstellt:    25.11.2013 KaulfuD/OP 
Geprüft:     25.11.2013  Bauer/OP  
Freigegeben: 03.01.2012 Hermann/DB 
               Datum       Name    
                 de                
297x420
Ersatz für:
AutoCAD-Zeichnung
Ersatz durch:
Plannummer
Aufstellungsplan Tk
Augsburg, Haunstetterstraße Fm-Raum
MAHA km 60,124
5503
München Hbf - Augsburg Hbf