﻿                                                            Die Bahn
                                                            DBTelematik
IdbI Maßstab: ohne Format: A4       
ISSI Planungszustand: Bestandsplan  
freigegeben
                                DB-felemam ümbH      Benennung: MPWL-Tastenbelegung         
                                D.KTR-SW-P           Basel Bad.Bf                           
                                Lammstrafle 19       TK-Raum                                
                                76133 Karlsruhe      Teilnehmer D2                          
                                       Datum Name                                           
                                Gez,   10.06 Zoller  Dateiname: Dsb 14 431 2 90 2.dwq Blatt 
                                Bearb, 10.06 Hertwiq                                        
1     Neuzeichnung 10.06 HK/ZF  Gepr.  10.06 Riedle                                     Bl. 
ZUSt;              Datum 'N ame                      Ers.f.: lErs.d.:                       
