﻿2057002490                                   
TKEE                                         
                          Datum   Name |     
Bestand            Gez.   10/04   KrauBe/IVV 
                   Gepr.  10/04   KrauBe/IVV 
Format:  1297x420I • •    08/2007 Gabler |   
                   Ubere.                    
Maßstab:   ohne    Urspr.                    
Basa Nürnberg Hbf (NN)
TK-Raum, Erdgeschoss
Strecke 5934: Abzw Nürnberg Reichswald, W 45 - Ingolstadt Nord, W 15 km 0,000