﻿ DIS-Beschreibung: BF_GLFM_5507   
                                  
 Dokumentation 09/2005    Kohrt   
                                  
                                  
                                  
                                  
                                  
                                  
                                  
 |Anderung |   iDatum |   Name    
S I                               
DB Telematik GmbH
D.KTR-S-P Landsberger Str. 314 80687 München
        IDatum l Name      
Gez. I  12/2004  Kohrt     
Bearbj02/2005    Bauer     
Gepr. | I02/2005 Eberhardt 
UrsDr.
6
Maßstab: 1:50
Format: AB
Planzustand: Bestand freigegeben
Grundrißplan Fernmelderaum ART-Anbindung "MWO" (01) Wolfratshausen Strecke 5507
München Süd - Wolfratshausen