﻿Eigentümer:
Niederlassung Süd
                               Bearbeitet durch:                              
                               TCS GmbH                                       
                               Julius-Otto-Straße 3                           
                               Will CWWUFXTOUMH*! () 1 2 1 9 D T G S d G fl   
                               Tel:0351/ 4 66 79 0                            
                                                Datum Name                    
                               Gez.   03/2004             Co/TCS              
                               Bearb. 03/2004             Rich/TCS            
korrektur 22.10.07 Leißner/NAD Gepr.                                          
ng Datum Name|Urspr. AA_MR_R23l00_00tdwg                                      
Maßstab: ohne
Planungszustand: Bestand
                                                                                             freigegeben
Format: 297x594
Benennung:
gesamter Erdungsplan Strecke Ingolstadt Hbf-Neuoffingen Repeater-Standort Höchstädt
Dateiname:  TKEE_2057002000.dwg
                                                                                                                      Blatt
                1
                                                                                                                                                1 Bl.