﻿DIS-Beschreibung: Lageplan 5920.23 Km 18,059-19,093
2057006421                    
                              
                       >      
            's-\              
               >              
                              
                              
                              
AA 8774029 / 24' 03.2009 E+B  
Änderung         Datum   Name 
IDB NETZE
Eigentümer; QB Netz AG
                                                                  RB: Süd
Verwaltung: OB Systel GmbH RB: Süd/Nürnberg
Datum
Name
Maßsfab; 1:1000
Format: 420 X 1540
Planzustand: Bestandsplan
Kabellageplan
5920 Nürnberg Nordost - Gräfenberg Abschnitt km: 18,059 - 19,093
Bfu Eschenau
Gez.
28.Q3.200< Spirk
Bearb
03.2000
            Dokument-ID: SchmidhHeihr.
Gepr
Blatt
02
02 BL
Urspr.
Ers.f.; Dlk 5920.01.23