﻿Ubere.
Datum
Rel. Reichertshofen Treuchtlingen
km 72,344
Datum
Name
Bestand       Gez.          10.08.07 OPB, Kamenz 
              Gepr.         10.08.07 OPB, Wahl   
Format;  | 297x841 (jbere.                       
Maßstab: ohne Urspr. |                           
Projektbeschreibung:
Ers. f.:
Blatt 01