﻿2057002488                                    
TKAG                                          
                           Datum   Name |     
Bestand             Gez.   10/04   KrauBe/IVV 
                    Gepr.  10/04   KrauBe/IVV 
Format:  I297x420 I • •    08/2007 Gabler |   
                    Ubere.                    
Maßstab:    ohne    Urspr. •                  
Basa Nürnberg Hbf (NN)
TK-Raum, 1. Erdgeschoss
Strecke 5934: Abzw Nürnberg Reichswald, W 45 - Ingolstadt Nord, W 15 km 0,000
Einschubbelegung: N___
BCC81B
Projektbeschreibung:
Blatt
01 Bl.
Ers. f.:
00000
OO.dwg