﻿                                                       BD K?lr, c             
                                                      S 7.302 Dlf  16.01.92   
1   deutsche Bundesbahn                                         (  ez. Reiher 
                                                    zur Ausf?hmng             
                                                    genehmigt:                
                                                          Datum    Home       
                                                    Beort 01,92      □eg er   
                                                    Gez.  01.92      Frort    
                                                    Gepr. 01.92     gez.H^ir  
                                                    Ober.                     
1 ( J1.92 Nach Angaben der Nm Nm                                              
Nr. Dot   AnöeruriQ           Bear. Qm. Ge n. Über. ürspr.                    
Dlf 1.000.25.5.2
Ausg. 1     2      
Dutum 01.92 01.92  
                   
B
St?rungsschutzplan
Grevenbroich-Neuss
&s. f. DK 1
J00.2b.ü Ausg. 5 von &90
Blatt
  2
  W