﻿   1 --- .................-t,M ....... ■*-                                
Nr AnderunQ                                Tat? Name Nr Änderung Tag Name 
                                                                          
                                                ■ .                       
                                                                          
  Bearb.
....Jag.;___Äa
  372 BÖ
fe. 4# 80
      EfllÄ___*
0Ä7iät
tfundesfro/WflreA'fttfn /Cc/a rfeni Ö4.              ,
                           '
60Sf 723
 Störungsschutzplan Grenzau - ershahn
  Deutsche
Bundesbahn
Dlf 1000.264.1/Ko
1    1      Aüsq  
1280 1 i    Datum 
D                 
