﻿                                                                                                         
                                                                                                         
                                                                                                         
                                                                                                         
                                                                                                         
                                                                                                         
Nr. • »                                                  Gez.        Datum  Gepr.  Datum  • •     Datum  
    Änderung                                                                              Ubere.         
Verwaltung:                                             Aufstellungsplan TK                              
DB Dienstleistungei                                     TK-BSH                                           
Systel GmbH                      Eigentümer:            Hp Aufhausen                                     
Regionalber. Süd/Büro München    Niederlassung Süd      Strecke 5601, Markt Schwaben - Erding            
         2  :057000015                                  km 10,013                                        
TKAP                                                                                                     
                                  Datum    Name                                                          
Bestand                   Gez.    20.11.07 OPB, Schmidt Projektbeschreibung:                Blatt 01     
                          Gepr.   20.11.07 OPB, Wahl                                                     
Format:     297x420       • •     03.06.08 Kosikowski                                       01 Bl.       
                          Ubere.                                                                         
Maßstab:    1:20          Urspr.                        Ers. f.:                                         
