﻿- m
-
Nr
Änderung
Bearb,
Gtpr.

Abnah.
Deutsche Bahn Gruppe
Bearb.
Gez.
übern.
Datum
IS.OS.2006
1S.0S.2006
Übern.
Ma

Name
Henkel
                          /■ h m fev ,                         
                          -M ^<y :$A ■"                        
      r                   ■ i ■’l’ v1 ’-r. . ■. ij. ■ ■■ *   B 
        . il-f* 1   mä& m                    MS3l™ti MV ,v     
        WVJ^t       11 m               &5Ö fiföf fc$A- 4 b     
        tßM »tu -jT mm m  M m ffes                             
Ausgabe jjr         inr^   nAJu W--LÜ«!..                      
Datum                                                          
BK Plessa
Henket
* *
f~m m ■ . ! ■ ■ ■
•:
Bahnbau
Vetschauer Straße 68 03048 Cottbus
Urspr
AufsteUungsplan LST Raum
7112,311-00837
Eri. für
Blatt
                                                                                                                                                                                                 1
BL
Ers. durch