﻿Neue VM im km 49,107
VM km 52,946
VM km 51,650 und km 51,710
Tkkl
DB Intern
{2057006404}
                                                         
                                                         
03       c)    Demir      Aratma     Schädel  Demir      
               04.12.2014 04.12.2014          04.12.2014 
02       b)    Schä.                                     
               04.2009                                   
01       a)                                              
                                                         
Index • •       Bearb. /  Gepr. /    Abnah. /  Übnah. /  
      Änderung   Datum    Datum       Datum     Datum    
DB Netz AG Regionalbereich: Süd
297x1350
Ersatz für: Laengen:K30_F4153_km0,48m339.dwg
AutoCAD-Zeichnung
Ersatz durch:
Plannummer
ohne
Erstellt:
Geprüft:
Freigegeben:
Planerstellung:
            Mobility Networks Logistics
DB Kommunikationstechnik GmbH
Datum
de
Name
Kabellängenplan Tk
F415B
43" ( 30 / 13)
5510
München Hbf - Rosenheim
48,339 53,519
22 23 24 25 26 
27