﻿                                                 
                                                 
                                                 
                                                 
                                                 
                                                 
 • •      Gez. Datum  Gepr. Datum  • •           
 Änderung                          Ubere. Datum  
Eigentümer:
Netz AG
Maßstab: ohne
Format: 297 x 594
Planzustand: Bestand
Niederlassung Süd
nderung
              
              
              
              
              
              
              
              
Datum Name\|  
Bearbeitet durch:
l
Gestell-/Verteiler-/Schrankbelegungsplan
Bf München-Pasing Gbf (MPG)
Stw R1, Fm Raum KE Gestell
Datum
Gez.
Bearb.
Gepr.
Urspr.
Name
23.02.07 Krause
Dokument
Blatt
12.02.07
Sowa
TKAG
2057000455
14.02.07
NAD
Ers.f.: