﻿Maftstab: 150             Format: A4       
Planzustand: BESTAND     freigegeben       
GrundriBplan                               
Oldersum Stw Of                            
26802 Oldersum                             
TK-Raum                                    
Dokument-ID: 10000057532             Blatt 
