﻿DIS-Beschreibung: BF_GLBd_5554._MLEU_01_01.dwg                 
                                  Die    Bah        »I         
Dokumentation 12/2005   K o h r t DB Telematik GmbH            
                                  D.KTR-S-P                    
                                  Landsberger Straße 314       
                                  80687 München                
                                         Datum      |Name      
                                  Gez.   02/2005    E.-Potsch  
                                  Bearb. 02/2005    Kohrt      
                                  Gepr.  02/2005    Eberhardt  
V W                                                            
Änderung      Datum     Name Urspr.                            
 Maßstab: ohne
Format: A3
 Planzustand: Bestand freigegeben
 Ubersichtsplan Bedienplatz ART-Anbindung
 "MLEU" (01) München Leuchtenbergring
Strecke 5554
München Ost Pbf, W67 -
München-Daglfing, W101, S-Bahn
Dokument-ID: Tkap_2057007507.dwg Blatt  
                                 01     
                                 01 Bl. 
Ers.f.; BF_GLBd_5554_MLEU_01_Ol.dwg     
