﻿m z. n                          
12.24.7f                        
16.1.19                         
17.11.7 7 J~CW§£- | fj# 77 "mm. 
        geändert  | geprüft I   
J


J
            Tag      Name    
Bearbeitet  42m      ßdÄMiS' 
Bezeichne t 15-12.76         
Geprüft     6.47?            




“*W*W
Bundesbahndirektion Hamburg Hmb-Altona,den 6.1.77
i
 UO §11£6
DEUTSCHE
BUNDESBAHN
1120
  Dsf 01 01a 1
Fd/
Ausgabe vom
Allfernsprecher - Tastenfeld 801eilig
B
Ersatz für
■ — '