﻿DIS-Beschreibung:
                                 Die Bahn DBI                
                                 DB Telematik GmbH           
                                 D.KFF-SW-P                  
                                 Hohenzollernstraße 4        
                                 71638 Ludwigsburg           
                                        Datum    Name        
Berichtiquna   18.05.05 WR/SF    Gez.   25.03.04 intermetric 
p p                                                          
Ubern. Bestand 08.04.05 WR/SF    Bearb. 25.03.04 Vogt        
Korrektur      16.08.04 Natterer Gepr.                       
Änderung       Datum    Name     Urspr.                      
Maßstab: 1 : 50
Format: A 3.2
Planzustand: Bestand           freigegeben
Grundrißplan
Ausrüstung mit TK-Anlagen
 Tuttlingen
 ESTW-A Modulgebäude, TK-Raum Bf Tuttlingen
Dokument-ID: Dli_19_555_1_1.dwg
Blatt
01
01 Bl.
Ers.f.:
7
8
9
10
12