﻿2057002529                                  
TKAG                                        
                               Datum Name | 
                 , |g ez. 10/04 Krauf3e/IVV 
Besti        ^ n H i_                       
              □ HU 1™ epr. 10/04 Krauße/IVV 
                   |g                       
Format: | 2 !97x420 ü bere 08/2007 Gabler   
Maßstab: C  >hne u                rspr. . | 
Basa Ingolstadt Hbf (MIH)
TK-Raum, Erdgeschoss Strecke 5501: München Hbf - Treuchtlingen km 80,886 Einschubbelegung:
BCC02B
Projektbeschreibung:
Blatt
01 Bl.
Ers. f.:
00000
OO.dwg