﻿Ubere.
Datum
ESTW-A Rohrbach/Ilm
A Rohrbach/Ilm
Datum
Name
Strecke: 5501 München - Treuchtlingen km 60,133
Bestand       Gez.       10.08.07 OPB, Kamenz 
              Gepr.      10.08.07 OPB, Wahl   
Format;  297x420 Obere.                       
Maßstab: ohne Urspr. |                        
Projektbeschreibung:
Ers. f.:
Blatt 01