﻿DIS-Beschreibung: BF_SY
                         
                         
                         
                         
                         
                         
                         
Erstellung Doku 12/2005  
|Anderung|      iDatum | 
5
5200_NHOE_01_01.dwg
DB Telematik GmbH
D.KTR-S-PB
Südwestpark 60 90449 Nürnberg

m
Maßstab: ohne
                                               Format: AB
Planzustand: Bestand freigegeben
Systemübersichtsplan Bedienplatz
ART-Anbindung
"NHOE" (01) Hösbach
Strecke 5200
Würzburg Hbf - Aschaffenburg Hbf