﻿DIS-Beschreibung: BF_GLFM_5554_MLEU_01_03.dwg                   
                                   Die    Bahn                  
Dokumentation 12/2005    K o h r t DB Telematik GmbH            
                                   D.KTR-S-P                    
                                   Landsberger Straße 314       
                                   80687 München                
                                          Datum Name            
                                   Gez.   01/2005    E.-Potsch  
                                   Bearb. 02/2005    Kohrt      
                                   Gepr.  02/2005    Eberhardt  
Änderung Datum Name Urspr.                                      
MaOst-ab: 160
Format; A2
Planzustand: Bestand freigegeben
Grundrissplan Fernmelderaum ART-Anbindung
"MLEU" (01) München Leuchfenbergring Strecke 5554 München Ost Pbf, W67 -München-Daglfing, W101, S-Bahn
Dokument-ID:   Tkap_2057007510.dwg
Ers.f.: BF_GLFM_5554_MLEU 01 _03.dwg
Blatt
01
01 Bl.