﻿              . Tag     Harrte 
\ bearbeit et                  
\ gezeichnet  2 9 k. 55 Mm     
loeprüi                        
Bvndesbahndirektion Augsburg Augsburg, im April 19S5
* *
Übersicht der Fernmeldeverbindungen
                                              Mindelheim
                        bahneigenes Gestänge
 Deutsche
Bundesbahn
6013
Ausgabe vorn April 55
Ensaf} Für Dlk 71 51
 Ersetzt durch