﻿DIS-Beschreibung: BF_SY_5540_MMDN_03_01.dwg                  
                                Die    Bah        »I         
Dokumentation 01/2006 K o h r t DB Telematik GmbH            
                                D.KTR-S-P                    
                                Landsberger Straße 314       
                                80687 München                
                                       Datum      |Name      
                                Gez.   03/2005    E.-Potsch  
                                Bearb. 03/2005    Zeuner     
                                Gepr.  03/2005    Eberhardt  
V W                                                          
Änderung      Datum   Name Urspr.                            
MaBstab: ohne               Format: A3                  
Planzustand: Bestand freigegeben                        
Systemübersichtsplan                                    
ART-Anbindung                                           
"MMDN" (03) München Donnersbergerbrücke, EStw           
Strecke 5540                                            
München Hbf (Tunnelbf) - Gauting, W22, S-Bahn           
Dokument-ID: Tkus_2057006979.dwg               Blatt    
                                               01       
                                               01 Bl.   
Ers.f.: BF_SY_5540_MMDN_0B_ _01.dwg                     
