﻿DIS-Beschreibung: BF_GLFM_5550_MIT_01_03.dwg						
			Bte	1CÖ ^ Lfck efrx rnmvm		
Dokumentation	12/2005	Kohr t	DB Telematik GmbH D.KTR-S-P Landsberger Straße 314 80687 München			
						
						
						
				Datum	Name	
			Gez.	03/2005	Lindner	
			Bearb.	03/2005	Kohrt	
			Gepr.	03/2005	Eberhardt	
V W Änderung	Datum	Name Urspr.				
Format: A3
Planzustand: Bestand freigegeben
Grundrißplan Fernmelderaum ART-Anbindung "MIT" (01) Mü Isartor Strecke 5550
München Hbf (Tunnelbf) - München Ost Pbf, S-Bahn
Dokument-ID:	Blatt
Tkap2057007485.dwg	01
	01 Bl.
| Ers.f.: BF GLFM 5550 MIT 01 03.dwg	