﻿DIS-Beschreibung: BF_GLBd_5910_NNA_01_01.dwg						
			Die	Bah	»I	
			DB Telematik GmbH D.KTR-S-P3 Südwestpark 60 90449 Nürnberg			
						
						
						
				Datum	|Name	
			Gez.	18.06.04	Dorn	
			Bearb.	18.06.04	Behrmann	
Erstellung Doku	08/2005	Dorn	Gepr.	18.06.04	Lehmann	
V W Änderung	Datum	Name Urspr.				
MaBstab: ohne	Format: A3	
Planzustand: Bestand freigegeben		
• • Ubersichtsplan Bedienplatz ART Anbindung "NNA" (01) Neustadt (Aisch) Strecke 5910 Fürth (Bay) Hbf W150 - Würzburg Hbf		
Dokument-ID: Tkap_2057007649.dwg		Blatt 01
		01 Bl.
Ers.f.: BF	GLBd	5910	NNA	01_	_01.dwg	