﻿							
							
							
							
							
							
Nr.	• • Änderung	Gez.	Datum	Gepr.	Datum	• • Ubere.	Datum
Verwaltung;
DB Dienstleistungen Systel GmbH
Eigentümer;
DB Infrastruktur
Netz AG
Regionalber. Süd/Büro München
Niederlassun
2057004555
Gestell-/Verteiler-/Schrankbelegungsplan
Standort: Bf Wolfratshausen KE-Raum
Strecke 5507: München Süd - Wolfratshausen
TKAG						
			Datum	Name		
Bestand		Gez.	11.06.08	E.-Potsch/OP	Projektbeschreibung:	Blatt 01
		Gepr.	11.06.08	Eberhardt/OP		
Format:	297x970	• § Ubere.	03.06.08	Eberhardt/OP		01 Bl.
Maßstab:	ohne	Urspr.			Ers. f.:	