﻿		
		
		
		BF
	Passau - Regensburg	BF
	Kabelstrecke	Planungszustand
							
							
							
							
							
							
Nr.	• ■ Änderung	Gezeichnet	Datum	Geprüft	Datum	• • Ubere. v. Ort	Datum
Tklk
Bestand
Format:
Maßstab:
297x1350
1:1000
Gez.
Gepr.
« «
Ubere.
Datum
12.02.2013
13.05.2013
Name
Grundner
Klitin
27.07.2012 Weidinger
Projektbeschreibung:
Blatt 01
01 Bl
Urspr.DIk 5830.01.32/ 01.33 v. 12.75
Ers t, Kabellage_5830_km33,990-34,990.dwg/Kabellage_km034,990_5830.dwg