﻿							
							
							
							
							
							
	• » Änderung	Gez. Datum		Gepr. Datum		• » Ubere. Datum	
Eigentümer:
Netz AG
Maßstab: 1: 50
Format: 297 x 420
Planzustand: Bestand
Niederlassung Süd
nderung
	
	
	
	
\	
	
	
	
Datum Name\|	
Bearbeitet durch:
Systel
Region Süd
Aufstellungsplan
Bf München-Pasing Gbf (MPG) Stw R1, Bedienraum
Datum
Gez.
Bearb.
Gepr,
Urspr.
17.10.07
Name NÄD
Dokument
Blatt
10.10.02 Krembs
TKAP
2057000453
17.10.02
NAD
Ers.f.: