﻿DIS-Beschreibung: BF_GLFM_5304_MBOB__01_01.dwg						
			Die	Bah	»I	
Dokumentation	08/2005	K o h r t	DB Telematik GmbH D.KTR-S-P Landsberger Str. 314 80687 München			
						
						
						
				Datum	|Name	
			Gez.	12/2004	E.-Potsch	
			Bearb.	12/2004	Kohrt	
			Gepr.	12/2004	Eberhardt	
V W Änderung	Datum	Name Urspr.				
MaDsrab: 1:50
Format: A3
Planzustand: Bestand freigegeben
Grundrißplan Fernmelderaum ART-Anbindung "MBOB" (01) Bobingen Strecke 5304
Augsburg Hbf, W652 - Buchloe
Dokument-ID: Tkap_2057007655.dwg
Ers.f.: BF____GLFM_____5304____MBOB_____01___01.dwg
Blatt
1
1 B .