﻿														
														
														
														
														
														
Nr.	• » Änderung							Gez.	Datum	Gepr.	Datum	• • Ubere.		Datum
Verwaltung: DB Dienstleistunger Systel GmbH Regionalber. Süd/Büro München				Eigentümer; Niederlassung Süd			Gestell-/Verteiler-/Schrankbelegungsplan TK Systemschrank TK-BSH Hp St. Kolomann Strecke 5601, Markt Schwaben - Erding km 6,472							
r		1057000011												
TKAG														
					Datum	Name								
Bestand			Gez.		20.11.07	OPB, Schmidt	Projektbeschreibung:						Blatt 01	
			Gepr.		20.11.07	OPB, Wahl								
Format:		297x420	• • Ubere.		03.06.08	Kosikowski							01 Bl.	
Maßstab:		ohne	Urspr.				Ers. f.:							