﻿DIS-Beschreibung: BF__GLBd___5703
Dokumentation	08/2005	Kohr t
		
		
		
		
		
		
		
V W Änderung	Datum	Name
MUS_01_01.dwg
DB Telematik GmbH
D.KTR-S-P
Landsberger Straße 314 80687 München
	Datum	Name
Gez.	04/2004	Lindner
Bearb.	01/2005	Kohrt
Gepr.	01/2005	Eberhardt
|Urspr.
Maßstab: ohne	Format: A3	
Planzustand: Bestand freigegeben		
• • Ubersichtsplan Bedienplatz ART-Anbindung "MUS" (01) Übersee Strecke 5703 Rosenheim - Freilassing (DB-Grenze)		
Dokument-ID:		Blatt
Tkap	2057006674.dwg		01 01 Bl.
Ers.f.; BF GLBd 5703 MUS 01	01.dwg	