﻿						
						
						
						
						
						
• • Änderung	Gezeichnet	Datum	Geprüft	Datum	• • Ubere. v. Ort	Datum
Nr.
Eigentümer: Qß NetZ AG
Verwaltung: DB Systel GmbH
RB: Süd/Nürnber
I
■
Standortplan
Mast
Strecke: S200 Würzburg Hbf - Aschaffenburg Hbf
{2057009509}
BTS
Standort: 18684 Lohr am Main
51,228
TKSM
Bestand
Format:
297x780
Maßstab:
Datum |		Name
Gez.	112.02.08 I	|Dorn	
Gepr.	12.02.08	| Wagner
• • 1 Ubere. |	111.06.08	| Meindl
Urspr.	•	
Leitungsführungsplan Anfennenkabel Mastzopf
Projektbeschreibung:
Blatt
03 bi
Ers. f.: