﻿		
		
		
		BF
	Passau - Regensburg	BF
	Kabelstrecke	Planungszustand
							
							
							
							
							
							
Nr.	• ■ Änderung	Gezeichnet	Datum	Geprüft	Datum	• • Ubere. v. Ort	Datum
Eigentümer: DBNetzAG RB: Süd Verwaltung: DB KT GmbH RB: Süd			NETZE
{2057015462}			
Tklk			
		Datum	Name
Besti	1 Gez. ^ n H	11.03.201:	3 Grundner
	3 1 1 U Gepr.	20.03.201	I3 Klitin
Format: 2	97x1350 übers	, 27.07.201	2| Weidinger
Maßstab:
1:1000
Urspr.DIk 5830.01.43/.01.44 v.2.76
Lageplan Tk
Strecke 5830: Passau Hbf - Obertraubling, W 5 und W 6 km 45,781 - km 46,672
Projektbeschreibung:
Blatt 01
01 Bl
Ers. f.: Kabellage_km045m050_5830.dwg/Kabellage_km046<145_5830.dwg