﻿DIS-Beschreibung: BF_GLBd_5402_MFN_01_01.dwg					
					
Dokumentation	09/2005	Kohr t	DB Telematik GmbH D.KTR-S-P Südwestpark 60 90449 Nürnberg		
					
					
					
				Datum	Name
			Gez.	02/2005	Dorn
			Bearb.	02/2005	Meyer
			Gepr.	02/2005	Verholen
V W Änderung	Datum	Name |Urspr.			
Maßstab: ohne	Format: A3	
Planzustand: Bestand freigegeben		
• • Ubersichtsplan Bedienplatz ART-Anbindung "MFN" (01) Fischen Strecke S402 Immenstadt, W 24 - Oberstdorf, Gl 3		
Dokument-ID: Tkap2057006869.dwg		Blatt 01
		01 Bl.
Ers.f.: BF GLBd 5402 MFN 01	Oldwg	