﻿							
							
							
							
							
							
Nr.	• i Änderung	Gez.	Datum	Gepr.	Datum	• i Ubere.	Datum
Eigentümer: ßß Netz AG
RB: Süd
Verwaltung: ßB Systel GmbH
RB: Süd/München
2057000708
TKAG				
			Datum	Name
Bestand		Gez.	28.04.08	Lorng/Pöyry
		Gepr.	28.04.08	Wuchold/Pöyry
Format:	297x420	• • Ubere.		
Maßstab:	ohne	Urspr.		
Bf Freising (ESTW)
Strecke 5500
München Hbf - Regensburg Hbf
Projektbeschreibung:
Dateiname:
Ers. f.:
Blatt 01