﻿			
			
			
			
			
			
03	Bestand TMD Anten. GSM450	05.09.07	Well Sjs
02	GSM-R/BTS km 36,094	04/2004	Kaulf.
01	LWL F7101	03/1998	H&P
|Vers|Änderung		Datum	Name|
							
							
							
							
							
03		St 1F7101 M50	A-DQ(ZN)2Y(SR)2Y 1x8 E9/125	BTS km 36,094-VAM50 km 36,068	BF	X	
02		F7101 144'	A-DF(ZN)2Y(SR)2Y 12x12E9/125		BF	X	ARCOR-Kabel
01	K60	F4622	F42"( 36/6)		BF	X	
Ifd. Nr.	Kabel-Nr. alt	Kabel-Nr. neu	Kabeltyp	Kabelstrecke	Planungs- zustana	Sichtbarkeit	Bemerkung
Eigentümer:
Netz AG
Niederlassung Süd
MaDsfab: 1:1000
Format: 420x1189
Planungszustand: Bestandsplan freigegeben
Bearbeitet durch:
Hofmann & Partner Beratende Ingenieure
86150 Augsburg, Uonhardsbcrg 1 TtL 0821/34766-0 Fax. /34766-60
Benennung:	Kabellageplan
5302
München Hbf -Neu Ulm (BD-Grenze)
Abschnitt km: 35.855 - 36.722
Datum
Gez.
Bearb.
Gepr.
04/1997
04/1997
04/1997
Name
Kr/H&P
Kr/H&P
Jaeqer/H&F
Blatt
01
01 Bl.
Urspr. Dlk v. 11.1977
Ers.f.: Dlk 5302 BS v. 10.1997 Ers.d.:
19	20	21 I	I 22	23
24
18