﻿					
					
					
					
II ♦ 1	1 i	• 1		• 1	1 •
litt 1 Änderung	Gez.	Datum	Gepr.	Datum	1 11 Ubere.
TKKZ
Eigentümer:
Niederlassung Süd
Bearbeitet durch:
Hofmann
Partner
Beratende Ingenieure
86150 Augsburg, Leonhardsberg 1 Tel. 0821/34766-0 Fax. /34766-60
I t
Datum
Name
Maßstab: ohne
Datum
Format: 297x594
Planzustand: Bestand freigegeben
Kabelzubehörplan
F4572, 21" (-/20/1) Strecke 5700 Rosenheim - Mühldorf
ESTW Rosenheim Korektur. 16.10.07
Hermann
Gez.
02/2000
H&P/Kr
Dokument-ID:
F4572 21"
06/2003
DBT
Bearb.
02/2000
H&P/Kr
• t
Anderunq
Änderung
03/2000
H&P
Gepr.
02/2000
Jae
Blatt
Bl.
Datum
Name
Urspr.
Ers.f.: Zubehoer_F4572.dwg