﻿					
					
					
02	F 771223		LWL 60'	Mü. Ost Pbf - M. Schwaben	B
01	F 4144	K 22	F42" (10/32)	Mü. Ost Pbf - M. Schwaben	B
Nr.	Kabel-Nr. neu	Kabel-Nr. alt	Kabeltyp	Kabelstrecke	Planungszustand
Verwaltung; DB Dienstleistungen Systel GmbH Regionalber. Süd/Büro München			Eigentümer: DB Infrastruktur j j Niederlassung Süd		
2057004016					
TKLK					
				Datum	Name
Bestand		Gez.		15.05.08	OPB, Schmidt
		Gepr.		15.05.08	OPB, Wahl
Format;	297x1189	• • Ubere.			
Maßstab:	1:1000	Urspr. Ivl 5600 AL			
							
							
							
							
							
							
Nr.	• • Änderung	Gez.	Datum	Gepr.	Datum	• • Ubere.	Datum
Lageplan TK
Strecke 5600, München Ost Pbf - Simbach km 11,281 - 12,176
Projektbeschreibung:
Blatt 01
01 Bl
Ers. f.: