﻿zusrana
DIS-Beschreibung:
JAAKKD PÖYRYINFRA
BPI-Consult GmbH Calenberger Esplanade 3 D-30169 Hannover Tel.:0511929 75 -0 Fax.: 0511929 75 - 33
BPI-Consult
Arcor AG & Co. TRA-NW
Vahrenwalder Str.4 30165 Hannover
Gez.
Bearb.
Gepr.
Datum
23.10.01
11.08.01
11.01
Name
Jol
Ziera
Köchv
Maßstab: 1=1000
Format: A3.0
Planzustand: siehe Kabeltabelle
Kabellageplan
6107 Oebisfelde - Lehrte
Abschnitt km: km 205,171 - km 206,074
• I
Ust Leiferde
Dokument-ID: BF_6107PT.dwg
Blatt
PT
Bl
Änderung
Datum
Name
Urspr. IVL 6107 PT
22
Ers.f.;
21
23
24