﻿DIS-Beschreibung: PA_GLBd_5201_NWRE_01_01.dwg
						Maßstab: ohne Format: A4	
			Die Bahn		IUDI	Planzustand: Ausführungsplanung in Prüfung	
						Ubersich tsp tan Bedienptatz ART-Anbindung Stw "NWRE" Strecke 5201 Würzburg Hbf, W77 - VeitshÖthheim, W29 G-Bahn Würzburg Rbf Einfahrt "NWRE"	
			DB TelemaHk GmbH D.KFF-S-P SüdwesFpark 60 90^49 Nürnberg				
							
							
							
				Datum	Name		
			Gez.	09.06.04	Dorn	Dokument-ID; Tkap 2Q$7G07593.dwg	Blatt 01
			Bearb	09.06.04	Behrmann		
			Gepr,	09.06.04	Pockrandt		01 Bl,
Änderung	Datum	Name	Urspr.			Ers.f.: PA GLBd 5201 NWRE 01 Otdwq	