﻿
						
						
						
						
						
						
1 1 1 Änderung	Gez.	Datum	Gepr.	Datum	1 * • Ubere.	Datum
ümer: Qß Netz AG
RB: Süd
itung: DB Systel GmbH
RB: Süd/München


2057001027

fand
3t:
297x420
tab:
ohne
	
	Datum |Name |
| Gez.	12.10.06 OPB, Kamenz
| Gepr.	12.10.06 OPB, Wahl
1 | Ubere.	
Urspr.	
Gestell-/Verteiler-/Schrankbelegungsplan
Kabelabschlussgestell -Raum, BSH Hp Obermenzing
Strecke: 5501, München - Treuchtlingen km 7,339
Projektbeschreibung:
Blatt
01 Bl
Ers. f.: .