﻿														
														
														
														
														
														
Nr.	• • Änderung							Gez.	Datum	Gepr.	Datum	• • Ubere.		Datum
Verwaltung: DB Dienstleistungen Systel GmbH Regionalber. Süd/Büro München				Eigentümer: DB Infrastruktur ||Q|ß| Niederlassung Süd			Erdungsplan TK TK-BSH Hp Grub Strecke 5600, München Ost Pbf - Simbach km 14,265							
2057000100														
TKEE														
					Datum	Name								
Bestand			Gez.		10.01.08	OPB, Schmidt	Projektbeschreibung:						Blatt 01	
			Gepr.		10.01.08	OPB, Wahl								
Format:		297x420	• • Ubere.		03.06.08	Kosikowski							01 Bl.	
Maßstab:		ohne	Urspr.				Ers. f.:							