﻿Tksm
DB Intern
Anpassung an Zeichenrichtlinie
{2057018754}
01
Index
a)
« «
Änderung
Schulz
04.08.15
Bearb. / Datum
Leißner
04.08.15
Gepr. / Datum
Abnah. / Datum
• i
Ubnah. / Datum
DB Netz AG Regionalbereich:
ohne		Erstellt:	05/2004	Nau/TSC GmbH	
		Geprüft:	05/2004	Ba/TSC GmbH	
		Freigegeben:			
Planerstellung:			Datum	Name	
DB Kommunikationstechnik GmbH			de		
					
	9				
| 297x590 | | |								
					AutoCAD-Zeichnung			
								
Ersatz für: AA_MA_18201_008.dwg				Ersatz durch:BF_FS_18201_001.dwg				
								
								
Plannummer								
Standortplan Mast Tk
BTS 18201 Kirchbergtunnel, km 128,865 5501 München Hbf - Treuchtlingen Antennenkabel - Anbindungsschema
GSM
01