﻿														
														
														
														
														
														
Nr.	• » Änderung							Gez.	Datum	Gepr.	Datum	• • Ubere.		Datum
Verwaltung: DB Dienstleistunge Systel GmbH Regionalber. Süd/Büro München				Eigentümer: Niederlassung Süd			Gestell-/Verteiler-/Schrankbelegungsplan TK LS A-Auf putz Verteiler Lademeister 7 Ubf München-Riem Strecke 5600, München Ost Pbf - Simbach km 7,512							
2		1057000132												
TKAG														
					Datum	Name								
Bestand			Gez.		1B.04.08	OPB, Schmidt	Projektbeschreibung:						Blatt 01	
			Gepr.		15.04.08	OPB, Wahl								
Format:		297x420	• • Ubere.		03.06.08	Kosikowski							01 Bl.	
Maßstab:		ohne	Urspr.				Ers. f.:							