﻿		
		
		
		
		
		
		\
GSM-R akt.	10/2007	Ka
DB Telematik
Region Süd
Landsberger Str. 314
80687 München
Datum
Gez.
Bearb
Gepr.
Name
11/2003
11/2003
12/2003
Ba
Richter
Byczynski
Änderung
patum
ame|Urspr. PA_DN_6362_301.dwg
Maßstab: ohne
Planungszustand: Bestandsplan
freigegeben
Format: 297x841
Benennung:	Systemübersichtsplan TK
Strecke 6362 Arcor Grenze 2 - Hof
Ubersichfsplan GSM-R
Dateiname:
Tkus 2057001983
Ers.f.; BF DN 6362 001
Blatt
1
1 Bl.