﻿			
		Tklb	DB Intern
02	Bestandsplan n. RfO ESTW-Z Coesfeld 2. Baustufe	{1057006073} B	
01	Bestand		
							
							
							
							
							
02	2.BS	Reck		Hensen		Megres	T.CVP 22
		07/2010		07/2010		11/2010	05/2012
01	Bestand	Stolle		Tiwaplan			
		10/2007		12/2007			
Index	Änderung	B	sarb. / Datum	Gepr, / Datum		Abnah. / Datum	Übnah. / Datum
1 : 200			Erstellt:		07/2010		
			Geprüft:		07/2010		
			Freigegeben:				
03
NETZE
DB Netz AG Regionalbereich: West
DIN A1
Ersatz für; S2265 KLU 002
AutoCAD-Zeichnung
Ersatz durch:
2265 .1101/01 59,028-Borkener Str
Plannummer
Planerstellung:
Mobility Networks Logistics
DB Kommunikationstechnik GmbH
03
Figura
Hensen
Datum
Name
de
mm
■ m
BU-Lageplan Tk
2265 Empel Rees - Coesfeld - Münster km 59,028 BÜ 590 Borkener Str., Kamera 7 Coesfeld Borkener Straße
S2265
TKLB
002
01
002