﻿DIS-Beschreibung:								
			. f			m	Maßstab: Format: A3.0	
			Die Bahn				Planzustand: Bestand freigegeben	
							p ■ Ubersichtsplan Meldeanlagensystem MAS 90 Anbindung ESTW-UZ Plochingen	
			DB Telematik GmbH Region Süd-West, D.KTR-SW-02 Lammstraße 19 76133 Karlsruhe					
								
								
								
				Datum	Name			
Bestandsübernahme	16.01.07	Natterer	Gez.	23.12.04	Drummer		Dokument-ID: DNA MAS 4500 4700 2 2.dwg	Blatt 02
Reichenbach entfernt	16.02.06	Lanq	Bearb.	23.12.04	U. Kuhn		DB Telematik-intern	
Korrektur	12.01.06	Natterer	Gepr.	16.01.07	M. Elies			02 Bl.