﻿Tkks
DB Intern
01
Bestandsplan nach RfO ESTW Solingen 1.BS
{1057006430}
							
							
							
							
							
							
							
01	Bestand n. RfO	Rusch		Esch		Brüggemann	hußwinkel
		01/2013		03/2011		06/2012	09.10.13
Index	■ » Änderung	ßearb. / Datum		Gepr. Datu	/ m	Abnah. / Datum	Übnah. / Datum
ohne			Erstellt:		01.2011		
			Geprüft:		01.2011		
			Freigegeben:				
Eil
NETZE
DB Netz AG Regionalbereich: West
297x420
Ersatz für: FI662289 KS 001
AutoCAD-Zeichnung
Ersatz durch:
KS— .0102/13 FI662289
Plannummer
Dirla/Henaux
Fußwinkel
Planerstellung:
Mobility Networks Logistics
DB Kommunikationstechnik GmbH
5
Datum
Name
E3
de
mm
Kabelspleißplan Tk
LWL
Fl 662289 24' FIST-GMS2
ESTW-A
ESTW-A Solingen, Tk-Raum - LST-Raum Einschub 3
Solingen, Tk-Raum
FI662289
TKKS
001
6
7
01
1
8