﻿Theresienstr. 63 80333 München Tel.: 089/ 54 35 66 01 Fax: 089/ 54 32 05 91
ng
	
	
	
	
	
	(
	[
	(
Datum	Namql
DB Telematik Region Süd
Landsberger Str. 314
80687 München
Datum
Gez
Bearb
Gepr
Name
12/2005
12/2005
We
Weiß
PA_MR_22180_001.dwg
Maßstab: ohne	Format: 297x841
Planungszustand: Bestandsplan freigegeben	
Benennung:	Erdungsplan TK
Strecke 5934 Nürnberg - Ingolstadt Nord
GSM-R / BTS Audi Tunnel Nord
Dateiname: TKEE 2057001917		Blatt 1
		1 Bl.
Ers.f.: Erdung_Audi_G$MR_22180.dwg	Ers.d.:	