﻿													
													
													
													
													
													
Nr.	• » Änderung						Gez.	Datum	Gepr.	Datum	• • Ubere.		Datum
Verwaltung: DB Dienstleistung* Systel GmbH Regionalber. Süd/Büro München			Eigentümer: snDB Infrastruktjl^ßl Niederlassung Süd			Gestell-/Verteiler-/Schrankbelegungsplan TK Systemschrank BKU TK-Raum, Verwaltungsgebäude Ubf München-Riem Strecke 5600, München Ost Pbf - Simbach km 8,240							
2		057000068											
TKAG													
				Datum	Name								
Best		and G	iez.	10.01.08	OPB, Schmidt	Projektbeschreibung:						Blatt 01	
		d 1 1 U 0	iepr.	10.01.08	OPB, Wahl								
Format:		297x420 [	Ibere.	03.06.08	Kosikowski							01 Bl.	
Maßstab:		ohne i	Irspr.			Ers. f.:							