﻿DIS-Beschreibung: BF_GLBd_5320_NSC_01_01.dwg					
					
			DB Telematik GmbH D.KTR-S-P3 Südwestpark 60 90449 Nürnberg		
					
					
					
				Datum	Name
			Gez.	07.2004	Dorn
			Bearb.	07.2004	Meyer
Erstellung Doku	12/2005	Dorn	Gepr.	07.2004	Lehmann
V W Änderung	Datum	Name |Urspr.			
Maßstab: ohne
Format: A3
Planzustand: Bestand freigegeben
Ubersichtsplan Bedienplatz ART Anbindung "NSC" (01) Schwabach Strecke 5320
Treuchtlingen - Nürnberg Hbf, W9
Dokument-ID: Tkap2057006794.dwg	Blatt 01
	01 Bl.
Ers.f.: BF GLBd 5320 NSC 01 Ol.dwg	