﻿DIS-Beschreibung: PA_SY_5972_NNG_01_01.dwg						
			Die	Bah	I	iS
			DB Telematik GmbH D.KFF-S-P Südwestpark 60 90449 Nürnberg			
						
						
						
				Datum	|Name	
			Gez.	11.2004	Dorn	
			Bearb.	11.2004	Müller	
			Gepr.	11.2004	Verholen	
V W Änderung	Datum	Name Urspr.				
Mafistab: ohne
Format: A3
Planzustand: Ausführungsplanung in Prüfung
Systemübersichtsplan ART-Anbindung "NNG" Nürnberg Hgbf Stw1 Strecke 5972
Nürnberg Hbf - Nürnberg Hgbf (Abzw. Fürth)
Dokument-ID: Tkus_2057007698.dwg
Ers.f.: PA____SY____5972____NNG_____01___01.dwg
Blatt
01
01 Bl.