﻿														
														
														
														
														
														
Nr.	• » Änderung							Gez.	Datum	Gepr.	Datum	• • Ubere.		Datum
Verwaltung: DB Dienstleistunger Systel GmbH Regionalber. Süd/Büro München				Eigentümer; Niederlassung Süd			Gestell-/Verteiler-/Schrankbelegungsplan TK Rahmenbelegung ZMX 80, Systemschrank ELA TK-BSH Hp Aufhausen Strecke 5601, Markt Schwaben - Erding km 10,013							
r		!057000118												
TKAG														
					Datum	Name								
Bestand			Gez.		10.03.08	OPB, Schmidt	Projektbeschreibung:						Blatt 01	
			Gepr.		10.03.08	OPB, Wahl								
Format:		297x420	• • Ubere.		03.06.08	Kosikowski							01 Bl.	
Maßstab:		ohne	Urspr.				Ers. f.:							