﻿DIS-Beschreibung: Dlk__1720__3029__22__006 Bf Cadenberge
Die Bahn
DB Telematik GmbH Region Nord Wendenstraße 205B7 Hamburg
Datum
Name
Maßstab: OHNE MASSSTAB
Format: A3
Planzustand: BESTAND
BE
• (
Ubersichtsplan
BAHNHOFSKABEL
BF CADENBERGE
Gez.
15.01.2004
GUENTHEH
Dokument-ID: 10000042836
00
Bearb.
15.01.2004
GUENTHEH
DB Telematik - intern
Gepr.
15.01.2004
POPPENH
Blatt
1
1 Bl.
Änderung
5
Datum
Name
Urspr. 0140027291
6
Ers.f.: DLK 1720 829.22 V. BAHNBAU STE
7
8