﻿Einspleißung 211 m 56" von km 47,055 bis km 47,298 in F4901/70
GSM-R/BTS km 45.452
♦ •
Überfragen F4901
♦ •
Änderung
Eigentümer: D^Netz AG
RB: Süd
erwaitung: DB Systel GmbH
RB: Süd/München
I
■
{2057010384}
TKLK
Datum
Name
Bestand
Gez.
Gepr.
0 7.0 2.031 Krause 17.02.03 Ebing
Format:
297x13501 jjhere
Maßstab:
1:1000
Urspr. IV15010 CU
n
Brenner
DBT
H&P
Gez.
	
	
31.08.10 |	Meidert
03.05 |	
01.03	
I Datum	Gepr. I
02.09.10 iRoßwurm
23.10.09
Datum
♦ •
Ubere.
Datum
Lageplan
Strecke 5010: Hochstadt Marktzeuln - Ludwigsstadt Abschnitt: km 46,661 - km 47,175
Projektbeschreibung:
Blatt
Kabellage_km046,661_5010CU.dwg