﻿							
05		F4144		km 4,673 - km 4,957	BF	X	
04		F771223	LWL 60'	Mü Ost Pbf-M.Schwaben	BF	X	
03	K222	F771222	A-DF{ZN)2YB2Y 3x2E10/125	Basa Mü Ost-Mü Riem	BF	X	
02	K22	F4144	F42"(10/32)	Marktoberdorf-Füssen	BF	X	
01	K21		F24"(16/8)		BF	X	
lfd. Nr.	Kabel-Nr. alt	Kabel-Nr.	Kabeltyp	Kabelstrecke	Planungs- zustana	Sichtbarkeit	Bemerkung
Verwaltung: DB Dienstleistungen Systel GmbH Regionalber. Süd/Büro München			Eigentümer: DB Infrastruktur j Niederlassung Süd		
2	057000142				
TKLK					
				Datum	Name
Bestand		Gez.		15.05.08	OPB, Bovelett
		Gepr.		15.05.08	OPB, Wahl
Format:	297x970	• § Ubere.			
Maßstab:	1:1000	Urspr. Ivl 5600-AA			
							
							
							
							
							
							
Nr.	§ § Änderung	Gez.	Datum	Gepr.	Datum	• § Ubere.	Datum
Lageplan TK
5600 Mü OsF Pbf-Simbach km 4,1+37 - km 4,7+53
Projektbeschreibung:
Blatt 01
01 Bl
Ers. f.: