﻿							
							
							
							
							
							
Nr.	• i Änderung	Gezeichnet	Datum	Geprüft	Datum	• • Ubere. v. Ort	Datum
Sfandortplan MastTk
Strecke; 5330 Nördlingen, W 207 - Pleinfeld, W 25 BTS - Standort: 24409 Rehenbühl
km 44,927
-Leitungsführungsplan Anfennenkabel -Mastzopf
Bestand
Format:	I297x841
Maßstab:	1:20
Gez.
Gepr.
Ubere.
24.07.2009
24.07.2009 21.06.2013

Dorn
Wagner
Neumeier
Projektbeschreibung:
Ers. f.:

Blatt