﻿Kabeiverlugung ; in« mw
r ■
«72

und 4uüfftef cA
1 1
iVH 'qMMw'il
Bestätigung	d&rLängemmßefnbetriebnobme m-esm

UMWiWh#
Awm«
£?r«ns.faf#ff*
P6. 1173
Hauth
Ht—I-
Abnahme
tfu rc/j
/ÖD * IM S
rsffl
iidP>.^
iVams
Ow/iS/sf#ffs
17.9.73 { rftuwaf
ßZ4
25.8.
tttr.iv
	&i3 h tTfflU i 111 T fl li fl ■ F& C m
	
I	"	'
Bufni&sbatintiifairtiöS)
■ j
' %
■ ■ ■
.VL.
Kobeifangen- u Pupinfekt

- .z-
■ ErJ
.- I'
Streck b , Mannheim -
i i	■
■bi - .
vQn km 52.070
\m i
Nt .l:
h'i
V-;': *
_ ■ *
i i -I