﻿														
														
														
														
														
														
Nr.	• » Änderung							Gez.	Datum	Gepr.	Datum	• • Ubere.		Datum
Verwaltung: DB Dienstleistungei Systel GmbH Regionalber. Süd/Büro München				Eigentümer: Niederlassung Süd			Gestell-/Verteiler-/Schrankbelegungsplan TK Rahmenbelegung ZMX 80, Gestellreihe 1 Fernmekderaum, Relaisgebäude Bf Erding Strecke 5601, Markt Schwaben - Erding km 13,590							
2		1057000120												
TKAG														
					Datum	Name								
Bestand			Gez.		10.03.08	OPB, Schmidt-	Projektbeschreibung:						Blatt 01	
			Gepr.		10.03.08	OPB, Wahl								
Format:		297x420	• • Ubere.		03.06.08	Kosikowski							01 Bl.	
Maßstab:		ohne	Urspr.				Ers. f.:							