﻿Eigentümer; Qß Netz AG RB: Süd Verwaltung: ßß KT GmbH RB; Süd			DB NETZE		Aufstellungsplan TK BSH Michelau hm 36,130 (NMI) Strecke 5100 Bamberg - Hof	
{2057013970}						
Tkap						
			Datum Na	me		
Besfandsplan		Gez.	22.10.2012 Sp	irk	Projektbeschreibung:	Blatt
		Gepr,	22.10.2012 Ed	I. ing		
Format:	297x420	Obere.	26.09.2012 Sc	hmidt		Bl.
Maßstab:	1:20	Urspr.			Ers, f,:	
