﻿DIS-Beschreibung: BF_GLFM_5610
Dokumentation	08/2005	Lindner
		
		
		
		
		
		
		
Änderung	Datum	Name
MOR_01__02.dwg
DB Telematik GmbH
D.KTR-S-P
Landsberger Straße 314 80687 München
Datum	
Gez.	01/2005
Bearb.	01/2005
Gepr.	01/2005
| Lirspr
Name
Lindner
Bauer
Eberhard!’
MaOstab: 150	Format: A2	
Planzustand: Bestand freigegeben		
Grundrissplan Fernmelderaum Basa Mü-Ost Pbf ART-Anbindung "MOR" (01) München Ost Rbf, Stw3 Strecke 5610 München Ost Pbf,W107 - München Ost Rbf,W317, G-Bahn		
Dokument-ID: Tkap	2057007526.dwg		Blatt 01
		01 Bl.
Ers.f.: BF GLFM 5610 MOR 01	_02.dwg	