﻿


1 • 20000
U.0

Ac^sxfe=s^
KX
=5?==-ö"'=<=P=^=i
1‘ - ■ -^1 T ■ iMi ■)■«■■
t
' :■
....... "i.	■. ."a i ■■ i ■■ »i
1	■ 1	1 '■'	■ '■ i.'■ i ■ ' 'a
' -------!fe=
4-
i
l
Js.
■— *«■
16
					
			7^ ^		
		A			
					
I					
					
			;		
					
	/			! "			
r					
I	MacMw // ^		ddmr—	MM	m
2	Fe msteuerupjgAad	Ham	Keiler	§™JWSm	
1 /	iptfß4b§ iidkem \		\Ao/)fn	mW	

Bearb
€pr
Num b e rg
den Januar 4$6l
Qei da u.
Data
ame
t • 4§¥? §£j. I i4-
m. 1
Norm US. W.61
/^HArnberg( den				Z		tf ✓
	\			y	/	
	\]			/		
		\		V		
		A	_/\			
		y				
		/	”\j			
	/	/		l\		
8	N. d. Örtlichkeit/	LNP-S-D	-	r\	-	Schilt 09.08
7	ft 4 Örtlichkeit	N.BI-S-L	-	-	\	11.00 Ernst
i	UasetzpfESO-OS 301	firoß	Mathein	0102.02	Hofbaösq	Seßi.10.03
5	RZ^/506/507	Kurasz	Mathein	15.02.95	Pöttiani)	'Beb 09.00
4/	'S Pn 4 ns	Vixhczm	WisMaSt	—		
\\}w.	a j Änderunq	Bear. Gepr. Datum			Name	fierÄ
S trb
502,05
Ausg
Datum
Maß st ab
Streckenübersich
Strecke
mberg
Rotten dort
Uber
2 «■
& 'V:
Absc
iOberiheres - Gadhetm
Sb, ooo
Bfatt
• •
LH Überschreitung
[ja/nein]
k.A.
Besondere betriebliche Regelungen:
für die Ortung der Gegenrichtung besteht kein Stellsignal - Verständigung mit dem Tfz erfolgt über Zugfunk.
Grundlage ist die Berechnung des Mindestabstandes zwischen HOA/FBOA-Abtasters und Stellsignal vom 11.09.1998 (EBA).
17	18	19	20	21	22	23	24	25	26
27