﻿DIS-Beschreibung: BF_GLBd_5100_NZA_01_01.dwg						
			Die	Bah	n|	
			DB Telematik GmbH D.KTR-S-P3 Landsberger Straße 314 80687 München			
						
						
						
			Datum Name			
			Gez.	06/20CU	¥ Dorn	
			Bearb.	06/200/	¥ E.-Potsch	
Erstellung Doku	07/2005	Dorn	Gepr.	06/200/	¥ Eberhardt	
Änderung Datum Name |Urspr.						
Maßstab: ohne
Format: A3
Planzustand: Bestand freigegeben
Ubersichtsplan Bedienplatz
ART-Anbindung
"NZA" (01) Zapfendorf
Strecke 5100
Bamberg - Hof (Saale), W121
Dokument-ID: TKAP	2057000962.dwg	Blatt
	01
	01 Bl.
Ers.f.:	