﻿					
					
02	F 4993	K 118	AJ-PLEb2Y 42" (22/29)	Neufahrn - Flgh Mü Terminal	Bestand
01	F 7114	K 119	A-DSF(L)(ZN)2Y 24'	Neufahrn - Flgh Mü Terminal	Bestand
Nr.	Kabel-Nr. neu	Kabel-Nr. alt	Kabelt yp	Kabelsfrecke	Planungszustand
• •
• •
Änderung
Datum
Gepr. Datum
Ubere. Datum
Verwaltung: DB Dienstleistungen Systel Regionalbereich Süd		Eigentümer: DB Infrastruktur Regionalbereich Süd		
205700			'06^	39
Tklk		intern		
			Datum	Name
Bestandsplan TK		Gez.	25.01.08	Lorng/Pöyry
		Gepr.	25.01.08	Wuchold/Pöyry
Format;	297x1189	• • Ubere.		
Maßstab;	1:1000	Urspr. BF 5557ai		
Lageplan TK
Strecke 5557
eufahrn (b. Fr.) - Flughafen München, Besucherpark
km 36.726 - km 37.270
Projektbeschreibung:
Blatt
Bl.
Ers. f.; Kabellage_km0B6,725__5557ai