﻿DIS-Beschreibung: PA_GLBd_5900_NF_02__01.dwg						
			Die	Bah	I	iS
			DB Telematik GmbH D.KFF-S-P Südwestpark 60 90449 Nürnberg			
						
						
						
				Datum	|Name	
			Gez.	07.2004	Dorn	
			Bearb.	07.2004	Lehmann	
			Gepr.	07.2004	Verholen	
V W Änderung	Datum	Name Urspr.				
MaBstab: ohne	Format: A3	
Planzustand: Ausführungsplanung in Prüfung		
• • Ubersichfsplan Bedienplatz ART Anbindung "NF" (01) Fürth (Bay) Hbf Schrw Strecke 5900 Nürnberg Hbf - Bamberg		
Dokument-ID: Tkap_2057007555.dwg		Blatt 01
		01 Bl.
Ers.f.: PA_GLBd_5900_NF_02_	Ol.dwg	