﻿DIS-Beschreibung: BF_GLFM_5540_ML_01_05.dwg						
			Bte	1CÖ ^ Lfck efrx rnmvm		
Dokumentation	01/2006	Kohr t	DB Telematik GmbH D.KTR-S-P Landsberger Straße 314 80687 München			
						
						
						
				Datum	Name	
			Gez.	03/2005	E.-Potsch	
			Bearb.	03/2005	Zeuner	
			Gepr.	03/2005	Eberhardt	
V W Änderung	Datum	Name Urspr.				
Maßstab: ohne	Format: A3	
Planzustand: Bestand freigegeben		
Grundrißplan ART-Anbindung "ML" (01) München-Laim Pbf, Bstg. GL 1 Strecke 5540 München Hbf (Tunnelbf) - Gauting, W22, S-Bahn		
Dokument-ID: Tkap	2057006986.dwg		Blatt 01
		01 Bl.
Ers.f.: BF GLFM 5540 ML 01	05.dwg	