﻿DIS-Beschreibung: B; 3710_KPF; 090,63-098,23
Rahmen und Schrifffeld
Änderung
07.07
Datum
Cziezeit
Name
die Bah
MK
DB Telematik GmbH Region West Thea-Leymann-Straße 9 45127 Essen
Gez.
Bearb.
Gepr.
Datum
10.83
10.83
10.83
Name
Zimmermanr
Hucklenbroi
Hucklenbroi
Urspr. FL0099___KPF___001
Maßstab: ohne
Format: A3.2
Planzustand: Bestand
BF
Störungsschutzplan
3710 Wetzlar, W 64 - Koblenz Hbf
Abschnitt km: 090.636-098,230
BD-Grenze - Niederlahnstein
Dokument-ID: FL0099_KPF h
001 00
DB Telematik - intern
:h
Ers.f.: Dlf 1.000.9.91
Blatt
01
Öl BL
8
9
10
12
7