﻿Ubere.
Datum
Basa Ingolstadt
Treuchtlingen
km 80,885
Datum
Name
Bestand		Gez. 10.08.07 OPB, Kamenz
		Gepr. 10.08.07 OPB, Wahl
Format;	297x780 Obere.	
Maßstab:	ohne	Urspr. |
Projektbeschreibung:
Ers. f.:
Blatt 01