﻿							
							
							
							
02	AA8774263 / 24'	E+B	19.10.2012	Vodafone	10/2012	—	—
01	neue Bestandsgrundlage Ivl 5925AF vom 10/2012 und Schriftfeldübernahme	Schulz	17.10.2012	Schäfer	17.10.2012	—	—
Nr.	« • Änderung	Gezeichnet	Datum	Geprüft	Datum	• • Ubere. v. Ort	Datum
		
		
		
		
		
2Y	Muffe NGN HVt Schnaittach - HVt Schnaittach	B
3U	Kabelstrecke	Planungszustand
Lageplan TK
Strecke 5925:
Neunkirchen a Sand, W 528 - Simmelsdorf-Hüttenbach,
km 4,780 - km 5,657 Hp Schnaittach Markt (NSMA)
Bestand
Format:	297x1350
Maßstab:	1:1000
Gez.
Gepr.
Ubere.
Urspr.
05 / 1996 05 / 1996 05 / 1996
Biersack
Burg
Unterschrift
vl 5925AF v. 10/2012
Projektbeschreibung:
Ers.f, Dlk 5925.6 v. 05/1996 / Dlk 5925.7 v. 05/1996