﻿						
						
						
						
						
						
• • Änderung	Gezeichnet	Datum	Geprüft	Datum	■ ■ Ubere. v. Ort	Datum
Maßstab: ohne
Format: 297x590
Planungszustand: Bestandsplan
freigegeben
	
	
	
	
	
	
	
Bestand GSM-R/BTS	04/04
Änderung	Datum
Eigentümer: Qß Netz AG
RB: Süd
Verwaltung: DB KT GmbH
RB: Süd
Datum
Gez.
Bearb.
DBT Gepr.
NamejUrspr.
Benennung:	Erdungsplan Tk
Strecke 5302 Augsburg Hbf - Neu-Ulm
Standort Augsburg Hirblingerstr.
Name
11/2002
11/2002
Kämmler/TCS
Kämmler/TCS
Dateiname:
Tkee
2057003715.dwg
Blatt
Ers.f.: BF MR 18238 0Q1.dwq|Ers.d.=