﻿BF
MBGU
/I
/I
ata
DB TeiemaHk GmbH
D.KTR-S-P
90449
60
Nürnberg
Datum
Dame
Daßstab: ohne
Format: A3
Pianzustand: Bestand
[an
ART
/ /
MBGU"
Hbt - Neu
im
Urenze
/I
Dorn
ID:
Bearb.
/I
er
Gepr.
/I
Verholen
Blatt
/I
Bl.
i i
Datum
Dame
BF
MBGU
/I